#,Trade Date,Near Ticket,Ccy 1,Ccy 2,Qty 1,Qty 2,Near Price,Far Ticket,Far Qty 1,Far Qty 2,Far Price,Risk Ccy,Risk Ccy Amt,USD Cost Amt
1,"06-10-2015",238028611,CAD,USD,22226.76,-18000,1.23482,238028621,-22227.084,18000,1.234838,CAD,-0.324,0.264187866924
2,"06-10-2015",238002451,CAD,USD,-228367.7,185000,1.23442,238002461,228371.955,-185000,1.234443,CAD,4.255,-3.469504240005
3,"06-10-2015",238003131,AUD,CAD,189000,-179146.296,0.947864,238003141,-189000,179140.248,0.947832,CAD,-6.048,4.931506849248
4,"06-10-2015",238003171,AUD,CHF,55000,-39305.09,0.714638,238003181,-55000,39302.065,0.714583,CHF,-3.025,3.24605644396
5,"06-10-2015",238003211,AUD,EUR,948159.03,-645000,1.470014,238003221,-948219.66,645000,1.470108,AUD,-60.63,46.939746
6,"06-10-2015",238003291,AUD,GBP,330623.205,-165000,2.003777,238003301,-330637.725,165000,2.003865,AUD,-14.52,11.241384
7,"06-10-2015",238003331,AUD,JPY,608000,-58064817,95.501344,238003341,-608000,58061568,95.496,JPY,-3249,26.4770597799
8,"06-10-2015",238003371,AUD,NZD,-249000,267536.058,1.074442,238003381,249000,-267546.516,1.074484,NZD,-10.458,7.3828251
9,"06-10-2015",238003431,AUD,USD,-1148000.24,881491.984284,0.76785,238003441,1148000.24,-881442.62027368,0.767807,USD,49.36401032,-49.36401032
10,"06-10-2015",238003491,CAD,CHF,-365000,275189.925,0.753945,238003501,365000,-275177.515,0.753911,CHF,12.41,-13.316879494064
11,"06-10-2015",238003531,CAD,EUR,-397111.59,285000,1.393374,238003541,397123.275,-285000,1.393415,CAD,11.685,-9.527886496935
12,"06-10-2015",238003571,CAD,GBP,-245010.861,129000,1.899309,238003581,245013.312,-129000,1.899328,CAD,2.451,-1.998532289601
13,"06-10-2015",238003611,CAD,JPY,-158000,15919166,100.75422,238003621,158000,-15918816,100.752,JPY,350,-2.852253285
14,"06-10-2015",238003651,CAD,NZD,-17643.84,20000,0.882192,238003661,17642.5,-20000,0.882125,CAD,-1.34,1.09262883234
15,"06-10-2015",238003691,CHF,EUR,940222.56,-895000,1.050528,238003701,-940205.555,895000,1.050509,CHF,17.005,-18.247666059352
16,"06-10-2015",238003731,CHF,GBP,27207.525,-19000,1.431975,238003741,-27206.537,19000,1.431923,CHF,0.988,-1.0601995922752
17,"06-10-2015",238029911,TRY,USD,-52389.707,19000,2.757353,238029921,52405.99,-19000,2.75821,TRY,16.283,-5.9525854984969
18,"06-10-2015",238003771,CHF,JPY,85000,-11359057,133.635973,238003781,-85000,11359332,133.6392,JPY,275,-2.2410561525
19,"06-10-2015",238003811,CHF,NZD,-42568,64000,0.665125,238003821,42562.944,-64000,0.665046,CHF,-5.056,5.4254748365824
20,"06-10-2015",238003891,CHF,USD,-381587,410000,0.9307,238003901,381577.57,-410000,0.930677,CHF,-9.43,10.119111493072
21,"06-10-2015",238003931,EUR,GBP,-853000,625778.713,0.733621,238003941,853000,-625789.802,0.733634,GBP,-11.089,17.2134547
22,"06-10-2015",238003991,EUR,JPY,-1521000,213530575,140.388281,238004001,1521000,-213531821,140.3891,JPY,-1246,10.1540216946
23,"06-10-2015",238004051,EUR,NZD,-194000,306412.136,1.579444,238004061,194000,-306444.34,1.57961,NZD,-32.204,22.7344138
24,"06-10-2015",238004091,EUR,SGD,5000,-7636.84,1.527368,238004101,-5000,7637.4,1.52748,SGD,0.56,-0.417489842336
25,"06-10-2015",238004151,EUR,USD,-9745000,10999668.75,1.12875,238004161,9745000,-10999785.69,1.128762,USD,-116.94,116.94
26,"06-10-2015",238004211,GBP,JPY,61000,-11673165,191.363375,238004221,-61000,11673033,191.3612,JPY,-132,1.0757069532
27,"06-10-2015",238004271,GBP,NZD,-459000,988200.378,2.152942,238004281,459000,-988285.293,2.153127,NZD,-84.915,59.94574425
28,"06-10-2015",238004311,GBP,USD,-3845000,5915917,1.5386,238004321,3845000,-5915863.17,1.538586,USD,53.83,-53.83
29,"06-10-2015",238004391,JPY,NZD,3644268,-41000,88.884594,238004401,-3643891,41000,88.8754,JPY,377,-3.0722842527
30,"06-10-2015",238004491,JPY,SGD,-275806,3000,91.935543,238004501,275821,-3000,91.9404,JPY,15,-0.1222394265
31,"06-10-2015",238004571,JPY,USD,-96763750,778000,124.375,238004581,96763516,-778000,124.3747,JPY,-234,1.9069350534
32,"06-10-2015",238004611,MXN,USD,-155820,10000,15.582,238004621,155834.01,-10000,15.583401,MXN,14.01,-0.907213023369
33,"06-10-2015",238004651,NOK,USD,93223.2,-12000,7.7686,238004661,-93226.008,12000,7.768834,NOK,-2.808,0.3620586281832
34,"06-10-2015",238004731,NZD,USD,657000,-469787.85,0.71505,238004741,-657000,469744.488,0.714984,USD,-43.362,43.362
35,"06-10-2015",238004771,SGD,USD,-12175.65,9000,1.35285,238004781,12176.325,-9000,1.352925,SGD,0.675,-0.50322436353
36,"06-10-2015",238003231,AUD,EUR,620345.908,-422000,1.470014,238003241,-620385.576,422000,1.470108,AUD,-39.668,30.7109656
37,"06-10-2015",238003271,AUD,GBP,38071.763,-19000,2.003777,238003281,-38073.435,19000,2.003865,AUD,-1.672,1.2944624
38,"06-10-2015",238003451,AUD,USD,21000,-16124.85,0.76785,238003461,-21000,16123.947,0.767807,USD,-0.903,0.903
39,"06-10-2015",238003851,CHF,USD,-59564.8,64000,0.9307,238003861,59563.328,-64000,0.930677,CHF,-1.472,1.5795686233088
40,"06-10-2015",238003971,EUR,JPY,-19000,2667377,140.388281,238003981,19000,-2667392,140.3891,JPY,-15,0.1222394265
41,"06-10-2015",238004031,EUR,NZD,-10000,15794.44,1.579444,238004041,10000,-15796.1,1.57961,NZD,-1.66,1.171877
42,"06-10-2015",238004131,EUR,USD,-370100,417750.375,1.12875,238004141,370100,-417754.8162,1.128762,USD,-4.4412,4.4412
43,"06-10-2015",238004231,GBP,JPY,84000,-16074523,191.363375,238004241,-84000,16074340,191.3612,JPY,-183,1.4913210033
44,"06-10-2015",238004331,GBP,USD,-13000,20001.8,1.5386,238004341,13000,-20001.618,1.538586,USD,0.182,-0.182
45,"06-10-2015",238004531,JPY,USD,1865625,-15000,124.375,238004541,-1865620,15000,124.3747,JPY,5,-0.0407464755
46,"06-10-2015",238004711,NZD,USD,20000,-14301,0.71505,238004721,-20000,14299.68,0.714984,USD,-1.32,1.32
47,"06-10-2015",238002431,CAD,USD,-5668456.64,4592000,1.23442,238002441,5668562.256,-4592000,1.234443,CAD,105.616,-86.118721460016
48,"06-10-2015",238003411,AUD,USD,-328000,251854.8,0.76785,238003421,328000,-251840.696,0.767807,USD,14.104,-14.104
49,"06-10-2015",238003871,CHF,USD,46535,-50000,0.9307,238003881,-46533.85,50000,0.930677,CHF,1.15,-1.23403798696
50,"06-10-2015",238004171,EUR,USD,-10350000,11682562.5,1.12875,238004181,10350000,-11682686.7,1.128762,USD,-124.2,124.2
51,"06-10-2015",238004351,GBP,USD,-3444000,5298938.4,1.5386,238004361,3444000,-5298890.184,1.538586,USD,48.216,-48.216
52,"06-10-2015",238004551,JPY,USD,-285565000,2296000,124.375,238004561,285564311,-2296000,124.3747,JPY,-689,5.6148643239
