#,Trade Date,Near Ticket,Ccy 1,Ccy 2,Qty 1,Qty 2,Near Price,Far Ticket,Far Qty 1,Far Qty 2,Far Price,Risk Ccy,Risk Ccy Amt,USD Cost Amt
1,"04-23-2015",209636531,CAD,USD,951825,-777000,1.225,209636541,-951836.655,777000,1.225015,CAD,-11.655,9.5929873662105
2,"04-23-2015",209675071,AUD,CAD,40000,-37939.32,0.948483,209675081,-40000,37934.6,0.948365,CAD,-4.72,3.884933536552
3,"04-23-2015",209675111,AUD,CHF,37000,-27800.542,0.751366,209675121,-37000,27793.845,0.751185,CHF,-6.697,7.0074291095654
4,"04-23-2015",209675151,AUD,EUR,182478.648,-132000,1.382414,209675161,-182515.08,132000,1.38269,AUD,-36.432,28.3295232
5,"04-23-2015",209675211,AUD,GBP,-2896445.381,1493000,1.940017,209675221,2896914.183,-1493000,1.940331,AUD,468.802,-364.5404352
6,"04-23-2015",209675251,AUD,JPY,10000,-928286,92.828639,209675261,-10000,928125,92.8125,JPY,-161,1.3454788515
7,"04-23-2015",209675291,AUD,USD,-4454000,3450531.616,0.774704,209675301,4454000,-3449908.056,0.774564,USD,623.56,-623.56
8,"04-23-2015",209675371,CAD,CHF,64000,-50699.328,0.792177,209675381,-64000,50693.44,0.792085,CHF,-5.888,6.1609291618816
9,"04-23-2015",209675411,CAD,EUR,183567.58,-140000,1.311197,209675421,-183581.16,140000,1.311294,CAD,-13.58,11.177414708978
10,"04-23-2015",209675451,CAD,GBP,-1111404.092,604000,1.840073,209675461,1111430.064,-604000,1.840116,CAD,25.972,-21.3770114007052
11,"04-23-2015",209675491,CAD,JPY,-108000,10570026,97.870616,209675501,108000,-10569484,97.8656,JPY,542,-4.529500233
12,"04-23-2015",209675531,CHF,EUR,613871.109,-591000,1.038699,209675541,-613840.968,591000,1.038648,CHF,30.141,-31.5381395836062
13,"04-23-2015",209675571,CHF,GBP,59764.183,-41000,1.457663,209675581,-59758.115,41000,1.457515,CHF,6.068,-6.3492727843576
14,"04-23-2015",209675611,CHF,JPY,26000,-3212208,123.546469,209675621,-26000,3212445,123.5556,JPY,237,-1.9806117255
15,"04-23-2015",209675651,CHF,USD,-223071.25,230000,0.969875,209675661,223054.23,-230000,0.969801,CHF,-17.02,17.808935858564
16,"04-23-2015",209675731,EUR,GBP,-73000,52018.267,0.712579,209675741,73000,-52021.041,0.712617,GBP,-2.774,4.1757022
17,"04-23-2015",209675791,EUR,JPY,75000,-9624571,128.327624,209675801,-75000,9624832,128.3311,JPY,261,-2.1811800015
18,"04-23-2015",209675831,EUR,USD,-3068000,3285711.416,1.070962,209675841,3068000,-3285818.796,1.070997,USD,-107.38,107.38
19,"04-23-2015",209675931,GBP,JPY,344000,-61950650,180.089101,209675941,-344000,61948999,180.0843,JPY,-1651,13.7974259865
20,"04-23-2015",209676011,GBP,USD,-632000,949857.448,1.502939,209676021,632000,-949836.592,1.502906,USD,20.856,-20.856
21,"04-23-2015",209676051,JPY,SGD,-355863,4000,88.96575,209676061,355856,-4000,88.9642,JPY,-7,0.0584990805
22,"04-23-2015",209676091,JPY,USD,-200706258,1675000,119.824632,209676101,200704865,-1675000,119.8238,JPY,-1393,11.6413170195
23,"04-23-2015",209679311,SEK,USD,1099892.682,-126000,8.729307,209679321,-1099832.706,126000,8.728831,SEK,59.976,-6.9414256446696
24,"04-23-2015",209679351,SGD,USD,499741.452,-371000,1.347012,209679361,-499746.646,371000,1.347026,SGD,-5.194,3.8691895114852
25,"04-23-2015",209679391,AUD,NZD,9000,-9213.768,1.023752,209679401,-9000,9215.523,1.023947,NZD,1.755,-1.332045
26,"04-23-2015",209679431,CAD,NZD,-38925.306,42000,0.926793,209679441,38913.42,-42000,0.92651,CAD,-11.886,9.7831186473426
27,"04-23-2015",209679471,CHF,NZD,-32301.456,44000,0.734124,209679481,32286.584,-44000,0.733786,CHF,-14.872,15.5613686303504
28,"04-23-2015",209679511,EUR,NZD,-30000,42430.65,1.414355,209679521,30000,-42447.87,1.414929,NZD,-17.22,13.06998
29,"04-23-2015",209679571,GBP,NZD,-69000,136977.834,1.985186,209679581,69000,-137030.757,1.985953,NZD,-52.923,40.168557
30,"04-23-2015",209679611,JPY,NZD,-14418634,159000,90.683235,209679621,14413270,-159000,90.6495,JPY,-5364,44.827009686
31,"04-23-2015",209679651,NZD,USD,-2848000,2155725.248,0.756926,209679661,2848000,-2154848.064,0.756618,USD,877.184,-877.184
32,"04-23-2015",209679691,USD,ZAR,3000,-36675.843,12.225281,209679701,-3000,36700.158,12.233386,ZAR,24.315,-2.001002925
33,"04-23-2015",209636551,CAD,USD,73500,-60000,1.225,209636561,-73500.9,60000,1.225015,CAD,-0.9,0.74077122519
34,"04-23-2015",209675051,AUD,CAD,-5000,4742.415,0.948483,209675061,5000,-4741.825,0.948365,CAD,0.59,-0.485616692069
35,"04-23-2015",209675191,AUD,GBP,-67900.595,35000,1.940017,209675201,67911.585,-35000,1.940331,AUD,10.99,-8.545824
36,"04-23-2015",209675311,AUD,USD,-163000,126276.752,0.774704,209675321,163000,-126253.932,0.774564,USD,22.82,-22.82
37,"04-23-2015",209675671,CHF,USD,-48493.75,50000,0.969875,209675681,48490.05,-50000,0.969801,CHF,-3.7,3.87150779534
38,"04-23-2015",209675751,EUR,GBP,-13000,9263.527,0.712579,209675761,13000,-9264.021,0.712617,GBP,-0.494,0.7436182
39,"04-23-2015",209675851,EUR,USD,-350000,374836.7,1.070962,209675861,350000,-374848.95,1.070997,USD,-12.25,12.25
40,"04-23-2015",209675911,GBP,JPY,-5000,900445,180.089101,209675921,5000,-900421,180.0843,JPY,24,-0.200568276
41,"04-23-2015",209675971,GBP,USD,-385000,578631.515,1.502939,209675981,385000,-578618.81,1.502906,USD,12.705,-12.705
42,"04-23-2015",209676131,JPY,USD,-3594738,30000,119.824632,209676141,3594714,-30000,119.8238,JPY,-24,0.200568276
43,"04-23-2015",209675331,AUD,USD,-5202000,4030010.208,0.774704,209675341,5202000,-4029281.928,0.774564,USD,728.28,-728.28
44,"04-23-2015",209675691,CHF,USD,48493.75,-50000,0.969875,209675701,-48490.05,50000,0.969801,CHF,3.7,-3.87150779534
45,"04-23-2015",209675871,EUR,USD,-4920000,5269133.04,1.070962,209675881,4920000,-5269305.24,1.070997,USD,-172.2,172.2
46,"04-23-2015",209675991,GBP,USD,-2420000,3637112.38,1.502939,209676001,2420000,-3637032.52,1.502906,USD,79.86,-79.86
47,"04-23-2015",209676111,JPY,USD,-665026707,5550000,119.824632,209676121,665022090,-5550000,119.8238,JPY,-4617,38.5843220955
48,"04-23-2015",209679551,GBP,NZD,1500000,-2977779,1.985186,209679561,-1500000,2978929.5,1.985953,NZD,1150.5,-873.2295
