#,Trade Date,Near Ticket,Ccy 1,Ccy 2,Qty 1,Qty 2,Near Price,Far Ticket,Far Qty 1,Far Qty 2,Far Price,Risk Ccy,Risk Ccy Amt,USD Cost Amt
1,"03-11-2015",187921731,CAD,USD,1251598.15395,-987050,1.268019,187921741,-1251612.9597,987050,1.268034,CAD,-14.80575,11.6150859021415
2,"03-11-2015",187958131,AUD,CAD,-297880,287352.32504,0.964658,187958141,297880,-287336.5374,0.964605,CAD,15.78764,-12.3853769509876
3,"03-11-2015",187958171,AUD,CHF,24000,-18213.6,0.7589,187958181,-24000,18212.136,0.758839,CHF,-1.464,1.450294714956
4,"03-11-2015",187958211,AUD,EUR,-723156.17488,514480,1.405606,187958221,723211.73872,-514480,1.405714,AUD,55.56384,-42.18684552
5,"03-11-2015",187958271,CAD,CHF,49000,-38548.496,0.786704,187958281,-49000,38547.271,0.786679,CHF,-1.225,1.2135321214625
6,"03-11-2015",187958331,CAD,EUR,123932.002,-91400,1.35593,187958341,-123934.744,91400,1.35596,CAD,-2.742,2.1510943750686
7,"03-11-2015",187958391,AUD,GBP,-2504997.88684,1262260,1.984534,187958401,2505149.35804,-1262260,1.984654,AUD,151.4712,-115.0045086
8,"03-11-2015",187958431,CAD,GBP,-30817.7506,16100,1.914146,187958441,30818.0404,-16100,1.914164,CAD,0.2898,-0.22734761119434
9,"03-11-2015",187958471,CHF,EUR,-290090.176,272000,1.066508,187958481,290089.904,-272000,1.066507,CHF,-0.272,0.269453662888
10,"03-11-2015",187958511,CHF,GBP,-61734.315,41000,1.505715,187958521,61732.798,-41000,1.505678,CHF,-1.517,1.5027985536805
11,"03-11-2015",187958551,EUR,GBP,-73230,51869.32161,0.708307,187958561,73230,-51870.05391,0.708317,GBP,-0.7323,1.093580205
12,"03-11-2015",187958631,AUD,JPY,-57470,5300449,92.229851,187958641,57470,-5300061,92.2231,JPY,388,-3.1902647772
13,"03-11-2015",187958671,CAD,JPY,-105000,10040248,95.621415,187958681,105000,-10040037,95.6194,JPY,211,-1.7349120309
14,"03-11-2015",187958711,CHF,JPY,-19400,2358246,121.559105,187958721,19400,-2358275,121.5606,JPY,-29,0.2384476251
15,"03-11-2015",187958751,EUR,JPY,-351080,45515341,129.64379,187958761,351080,-45515450,129.6441,JPY,-109,0.8962341771
16,"03-11-2015",187958831,GBP,JPY,-281030,51437851,183.033311,187958841,281030,-51437201,183.031,JPY,650,-5.344515735
17,"03-11-2015",187958911,AUD,NOK,124.87,-770.28132342,6.168666,187958921,-124.87,770.25784786,6.168478,NOK,-0.02347556,0.00286083221230169
18,"03-11-2015",187958951,AUD,NZD,994220,-1043371.25414,1.049437,187958961,-994220,1043411.02294,1.049477,NZD,39.7688,-29.09286564
19,"03-11-2015",187959011,CAD,NZD,-211842.59448,230430,0.919336,187959021,211825.77309,-230430,0.919263,CAD,-16.82139,13.1963520823615
20,"03-11-2015",187959051,CHF,NZD,-58620.32232,81060,0.723172,187959061,58613.6754,-81060,0.72309,CHF,-6.64692,6.58469463574818
21,"03-11-2015",187959091,EUR,NOK,1000,-8669.575,8.669575,187959101,-1000,8669.934,8.669934,NOK,0.359,-0.0437492764482
22,"03-11-2015",187959331,AUD,SEK,224.27,-1462.01680281,6.519003,187959341,-224.27,1461.91722693,6.518559,SEK,-0.09957588,0.0115347318872
23,"03-11-2015",187959371,AUD,SGD,-114.69,120.92397495,1.054355,187959381,114.69,-120.91491444,1.054276,SGD,0.00906051,-0.00653527841928171
24,"03-11-2015",187959411,EUR,NZD,75200,-110938.2736,1.475243,187959421,-75200,110950.456,1.475405,NZD,12.1824,-8.91203472
25,"03-11-2015",187959451,GBP,NZD,-187920,391321.60128,2.082384,187959461,187920,-391356.17856,2.082568,NZD,-34.57728,25.295009184
26,"03-11-2015",187959491,JPY,NZD,-3076108,35000,87.888809,187959501,3075803,-35000,87.8801,JPY,-305,2.5078112295
27,"03-11-2015",187959551,AUD,USD,-1028340,781178.481,0.75965,187959561,1028340,-781126.03566,0.759599,USD,52.44534,-52.44534
28,"03-11-2015",187959611,CHF,USD,34952.75,-35000,0.99865,187959621,-34951.455,35000,0.998613,CHF,1.295,-1.2828768141175
29,"03-11-2015",187959691,EUR,USD,-1120130,1196466.8595,1.06815,187959701,1120130,-1196478.0608,1.06816,USD,-11.2013,11.2013
30,"03-11-2015",187959771,GBP,USD,-399930,602994.4575,1.50775,187959781,399930,-602991.65799,1.507743,USD,2.79951,-2.79951
31,"03-11-2015",187959811,JPY,USD,-39464691,325120,121.385,187959821,39464431,-325120,121.3842,JPY,-260,2.137806294
32,"03-11-2015",187959891,NOK,USD,-16230.2,2000,8.1151,187959901,16230.7,-2000,8.11535,NOK,0.5,-0.0609321399
33,"03-11-2015",187959931,NZD,USD,-1102970,798495.1315,0.72395,187959941,1102970,-798420.12954,0.723882,USD,75.00196,-75.00196
34,"03-11-2015",187960011,SGD,USD,-211810.17,152700,1.3871,187960021,211854.453,-152700,1.38739,SGD,44.283,-31.9409982706329
35,"03-11-2015",187960051,USD,ZAR,20,-247.32578,12.366289,187960061,-20,247.36536,12.368268,ZAR,0.03958,-0.0032243847
36,"03-11-2015",187958311,CAD,EUR,-3850.3937431,2839.67,1.35593,187958321,3850.4789332,-2839.67,1.35596,CAD,0.0851901,-0.0668314897598583
37,"03-11-2015",187958231,AUD,EUR,-934727.99,665000,1.405606,187958241,934799.81,-665000,1.405714,AUD,71.82,-54.529335
38,"03-11-2015",187958771,EUR,JPY,-30000,3889313,129.64379,187958781,30000,-3889323,129.6441,JPY,-10,0.082223319
39,"03-11-2015",187958811,GBP,JPY,-10000,1830333,183.033311,187958821,10000,-1830310,183.031,JPY,23,-0.1891136337
40,"03-11-2015",187958971,AUD,NZD,11000,-11543.807,1.049437,187958981,-11000,11544.247,1.049477,NZD,0.44,-0.321882
41,"03-11-2015",187959531,AUD,USD,70000,-53175.5,0.75965,187959541,-70000,53171.93,0.759599,USD,-3.57,3.57
42,"03-11-2015",187959591,CHF,USD,-2995.95,3000,0.99865,187959601,2995.839,-3000,0.998613,CHF,-0.111,0.1099608697815
43,"03-11-2015",187959671,EUR,USD,-417000,445418.55,1.06815,187959681,417000,-445422.72,1.06816,USD,-4.17,4.17
44,"03-11-2015",187959731,GBP,USD,-50000,75387.5,1.50775,187959741,50000,-75387.15,1.507743,USD,0.35,-0.35
45,"03-11-2015",187959851,JPY,USD,11774345,-97000,121.385,187959861,-11774267,97000,121.3842,JPY,78,-0.6413418882
46,"03-11-2015",187959971,NZD,USD,-141200,102221.74,0.72395,187959981,141200,-102212.1384,0.723882,USD,9.6016,-9.6016
47,"03-11-2015",187959651,EUR,USD,760000,-811794,1.06815,187959661,-760000,811801.6,1.06816,USD,7.6,-7.6
48,"03-11-2015",187959751,GBP,USD,2280000,-3437670,1.50775,187959761,-2280000,3437654.04,1.507743,USD,-15.96,15.96
49,"03-11-2015",187959831,JPY,USD,369010400,-3040000,121.385,187959841,-369007968,3040000,121.3842,JPY,2432,-19.9967111808
50,"03-11-2015",187959951,NZD,USD,2280000,-1650606,0.72395,187959961,-2280000,1650450.96,0.723882,USD,-155.04,155.04
