#,Trade Date,Near Ticket,Ccy 1,Ccy 2,Qty 1,Qty 2,Near Price,Far Ticket,Far Qty 1,Far Qty 2,Far Price,Risk Ccy,Risk Ccy Amt,USD Cost Amt
1,"03-05-2015",184084871,CAD,USD,-1714604.14098,1379610,1.242818,184084881,1714635.87201,-1379610,1.242841,CAD,31.73103,-25.4163402616965
2,"03-05-2015",184084931,TRY,USD,-25656.71,10000,2.565671,184084941,25663.79,-10000,2.566379,TRY,7.08,-2.714463720648
3,"03-05-2015",184107911,CAD,NZD,1963.46304,-2090,0.939456,184107921,-1962.96144,2090,0.939216,CAD,0.5016,-0.40177820497056
4,"03-05-2015",184107951,CHF,EUR,-31317.1292,29300,1.068844,184107961,31316.2795,-29300,1.068815,CHF,-0.8497,0.87247150634517
5,"03-05-2015",184107991,CHF,GBP,45650.972,-31000,1.472612,184108001,-45645.051,31000,1.472421,CHF,5.921,-6.0796796387781
6,"03-05-2015",184108031,CHF,JPY,-29000,3598925,124.100865,184108041,29000,-3599108,124.1072,JPY,-183,1.5239840145
7,"03-05-2015",184108071,CHF,NZD,-57468.0216,78760,0.72966,184108081,57447.62276,-78760,0.729401,CHF,-20.39884,20.9455180210593
8,"03-05-2015",184108131,CHF,USD,56870.40888,-58920,0.965214,184108141,-56864.63472,58920,0.965116,CHF,5.77416,-5.92890440517598
9,"03-05-2015",184108171,EUR,GBP,-163490,118663.65784,0.725816,184108181,163490,-118669.70697,0.725853,GBP,-6.04913,9.223108511
10,"03-05-2015",184108231,EUR,JPY,-3843840,509864281,132.644512,184108241,3843840,-509870000,132.646,JPY,-5719,47.6265823985
11,"03-05-2015",184108271,EUR,NZD,-27060,39638.92218,1.464853,184108281,27060,-39651.36978,1.465313,NZD,-12.4476,9.32076288
12,"03-05-2015",184108311,EUR,SEK,-5000,46132.93,9.226586,184108321,5000,-46132.905,9.226581,SEK,0.025,-0.0029963265025
13,"03-05-2015",184108371,EUR,USD,1065550,-1179953.8413,1.107366,184108381,-1065550,1179990.07,1.1074,USD,36.2287,-36.2287
14,"03-05-2015",184108411,GBP,JPY,-514060,93945678,182.752361,184108421,514060,-93941843,182.7449,JPY,3835,-31.9370420525
15,"03-05-2015",184108451,GBP,NZD,-24000,48437.208,2.018217,184108461,24000,-48449.928,2.018747,NZD,-12.72,9.524736
16,"03-05-2015",184108491,GBP,USD,-165520,252531.21568,1.525684,184108501,165520,-252525.42248,1.525649,USD,5.7932,-5.7932
17,"03-05-2015",184108551,JPY,USD,-99896138,833970,119.783851,184108561,99894594,-833970,119.782,JPY,-1544,12.858094636
18,"03-05-2015",184108631,USD,ZAR,20,-235.92458,11.796229,184108641,-20,236.04098,11.802049,ZAR,0.1164,-0.009830562
19,"03-05-2015",184108771,AUD,USD,-620430,485385.34491,0.782337,184108781,620430,-485295.38256,0.782192,USD,89.96235,-89.96235
20,"03-05-2015",184108831,CAD,EUR,31511.3389,-22900,1.376041,184108841,-31513.8121,22900,1.376149,CAD,-2.4732,1.98101646039312
21,"03-05-2015",184108871,CAD,GBP,-6446.0668,3400,1.895902,184108881,6446.2742,-3400,1.895963,CAD,0.2074,-0.16612599623384
22,"03-05-2015",184108911,CAD,JPY,78920,-7606230,96.379002,184108921,-78920,7605741,96.3728,JPY,-489,4.0722851535
23,"03-05-2015",184108951,JPY,NZD,-12134889,134040,90.531853,184108961,12131249,-134040,90.5047,JPY,-3640,30.31312466
24,"03-05-2015",184108991,NOK,USD,-232786.20106,29860,7.795921,184109001,232808.7155,-29860,7.796675,NOK,22.51444,-2.91581169495949
25,"03-05-2015",184109031,NZD,USD,-3367950,2545688.58315,0.755857,184109041,3367950,-2544917.3226,0.755628,USD,771.26055,-771.26055
26,"03-05-2015",184109091,SGD,USD,-111870.26314,81740,1.368611,184109101,111889.55378,-81740,1.368847,SGD,19.29064,-14.0715150629171
27,"03-05-2015",184109731,AUD,CAD,14340,-13937.03166,0.971899,184109741,-14340,13935.2535,0.971775,CAD,-1.77816,1.42429412470186
28,"03-05-2015",184109771,AUD,CHF,18320,-13823.9056,0.75458,184109781,-18320,13820.47976,0.754393,CHF,-3.42584,3.51765068294402
29,"03-05-2015",184109811,AUD,EUR,499179.75131,-352610,1.415671,184109821,-499283.77126,352610,1.415966,AUD,-104.01995,80.958727085
30,"03-05-2015",184109851,AUD,GBP,-3011219.3772,1543600,1.950777,184109861,3011713.3292,-1543600,1.951097,AUD,493.952,-384.4428416
31,"03-05-2015",184109891,AUD,JPY,22260,-2085121,93.671217,184109901,-22260,2084715,93.653,JPY,-406,3.381079289
32,"03-05-2015",184109931,AUD,NOK,124.87,-761.03120356,6.094588,184109941,-124.87,760.96964265,6.094095,NOK,-0.06156091,0.00797266204846083
33,"03-05-2015",184109971,AUD,NZD,-452980,468795.7967,1.034915,184109981,452980,-468842.45364,1.035018,NZD,-46.65694,34.936716672
34,"03-05-2015",184110051,AUD,SEK,224.27,-1461.38884681,6.516203,184110061,-224.27,1461.09953851,6.514913,SEK,-0.2893083,0.0346744850673288
35,"03-05-2015",184110091,AUD,SGD,-114.69,122.76429069,1.070401,184110101,114.69,-122.7355035,1.07015,SGD,0.02878719,-0.0209987526439795
36,"03-05-2015",184110131,CAD,CHF,21420,-16630.42374,0.776397,184110141,-21420,16628.4531,0.776305,CHF,-1.97064,2.0234520998753
37,"03-05-2015",184108811,CAD,EUR,-3907.50234647,2839.67,1.376041,184108821,3907.80903083,-2839.67,1.376149,CAD,0.30668436,-0.245652096597578
38,"03-05-2015",184108111,CHF,USD,-2895.642,3000,0.965214,184108121,2895.348,-3000,0.965116,CHF,-0.294,0.3018790430334
39,"03-05-2015",184108211,EUR,JPY,-35000,4642557,132.644512,184108221,35000,-4642610,132.646,JPY,-53,0.4413724195
40,"03-05-2015",184108351,EUR,USD,-381000,421906.446,1.107366,184108361,381000,-421919.4,1.1074,USD,-12.954,12.954
41,"03-05-2015",184108511,GBP,USD,-20000,30513.68,1.525684,184108521,20000,-30512.98,1.525649,USD,0.7,-0.7
42,"03-05-2015",184108571,JPY,USD,7187031,-60000,119.783851,184108581,-7186920,60000,119.782,JPY,111,-0.9243837465
43,"03-05-2015",184108731,AUD,USD,-108000,84492.396,0.782337,184108741,108000,-84476.736,0.782192,USD,15.66,-15.66
44,"03-05-2015",184109051,NZD,USD,-16200,12244.8834,0.755857,184109061,16200,-12241.1736,0.755628,USD,3.7098,-3.7098
45,"03-05-2015",184109991,AUD,NZD,50000,-51745.75,1.034915,184110001,-50000,51750.9,1.035018,NZD,5.15,-3.85632
46,"03-05-2015",184108591,JPY,USD,-273107180,2280000,119.783851,184108601,273102960,-2280000,119.782,JPY,-4220,35.14323793
47,"03-05-2015",184108751,AUD,USD,-3800000,2972880.6,0.782337,184108761,3800000,-2972329.6,0.782192,USD,551,-551
48,"03-05-2015",184110011,AUD,NZD,-60000,62094.9,1.034915,184110021,60000,-62101.08,1.035018,NZD,-6.18,4.627584
