#,Trade Date,Near Ticket,Ccy 1,Ccy 2,Qty 1,Qty 2,Near Price,Far Ticket,Far Qty 1,Far Qty 2,Far Price,Risk Ccy,Risk Ccy Amt,USD Cost Amt
1,"05-21-2015",225613661,AUD,CAD,141000,-135701.643,0.962423,225613671,-141000,135683.172,0.962292,CAD,-18.471,15.1383026681382
2,"05-21-2015",225613701,CAD,CHF,11000,-8424.218,0.765838,225613711,-11000,8422.722,0.765702,CHF,-1.496,1.5965848452136
3,"05-21-2015",225613741,CAD,EUR,-430002.258,317000,1.356474,225613751,430052.978,-317000,1.356634,CAD,50.72,-41.568659592224
4,"05-21-2015",225613781,CAD,GBP,878240.161,-463000,1.896847,225613791,-878272.108,463000,1.896916,CAD,-31.947,26.1828463720974
5,"05-21-2015",225613821,CAD,JPY,30000,-2980315,99.343841,225613831,-30000,2980041,99.3347,JPY,-274,2.2639015182
6,"05-21-2015",225613861,CAD,NZD,-77700.918,87000,0.893114,225613871,77677.602,-87000,0.892846,CAD,-23.316,19.1091259276872
7,"05-21-2015",225613901,AUD,CHF,40000,-29489.88,0.737247,225613911,-40000,29480.6,0.737015,CHF,-9.28,9.903948772448
8,"05-21-2015",225613941,AUD,EUR,1521805.32,-1080000,1.409079,225613951,-1522189.8,1080000,1.409435,AUD,-384.48,303.54696
9,"05-21-2015",225614001,AUD,GBP,-1067892.302,542000,1.970281,225614011,1068083.628,-542000,1.970634,AUD,191.326,-151.051877
10,"05-21-2015",225614041,AUD,JPY,613000,-58629133,95.642959,225614051,-613000,58615611,95.6209,JPY,-13522,111.7243661646
11,"05-21-2015",225614081,AUD,NZD,-737000,794396.086,1.077878,225614091,737000,-794523.587,1.078051,NZD,-127.501,93.6622346
12,"05-21-2015",225614121,CHF,EUR,-507992.76,489000,1.03884,225614131,507961.953,-489000,1.038777,CHF,-30.807,32.8783351112937
13,"05-21-2015",225614161,CHF,GBP,100228.296,-69000,1.452584,225614171,-100213.737,69000,1.452373,CHF,14.559,-15.5378868726369
14,"05-21-2015",225614211,CHF,JPY,21000,-2724326,129.729834,225614221,-21000,2724569,129.7414,JPY,243,-2.0077666749
15,"05-21-2015",225614261,CHF,NZD,205877.98,-301000,0.68398,225614271,-205777.446,301000,0.683646,CHF,100.534,-107.293489858759
16,"05-21-2015",225614301,EUR,GBP,621000,-444118.086,0.715166,225614311,-621000,444153.483,0.715223,GBP,35.397,-55.4281623
17,"05-21-2015",225614341,EUR,JPY,100000,-13476848,134.768489,225614351,-100000,13477150,134.7715,JPY,302,-2.4952491186
18,"05-21-2015",225614381,EUR,NOK,-2000,16814.556,8.407278,225614391,2000,-16817.248,8.408624,NOK,-2.692,0.3556964953256
19,"05-21-2015",225614421,EUR,NZD,386000,-586262.59,1.518815,225614431,-386000,586510.016,1.519456,NZD,247.426,-181.7591396
20,"05-21-2015",225614481,EUR,SEK,5000,-46339.33,9.267866,225614491,-5000,46338.65,9.26773,SEK,-0.68,0.081524508304
21,"05-21-2015",225614541,EUR,SGD,17000,-25244.558,1.484974,225614551,-17000,25248.06,1.48518,SGD,3.502,-2.6214537016978
22,"05-21-2015",225614601,GBP,JPY,229000,-43153568,188.44353,225614611,-229000,43151202,188.4332,JPY,-2366,19.5488722338
23,"05-21-2015",225614661,GBP,NZD,-312000,662601.264,2.123722,225614671,312000,-662825.592,2.124441,NZD,-224.328,164.7913488
24,"05-21-2015",225614721,JPY,NZD,1952118,-22000,88.732676,225614731,-1951334,22000,88.697,JPY,784,-6.4777328112
25,"05-21-2015",225614791,JPY,SGD,-363019,4000,90.754757,225614801,363021,-4000,90.7553,JPY,2,-0.0165248286
26,"05-21-2015",225579051,CAD,USD,-124370.64,102000,1.21932,225579061,124373.19,-102000,1.219345,CAD,2.55,-2.08990697871
27,"05-21-2015",225579111,TRY,USD,-77356.65,30000,2.578555,225579121,77380.08,-30000,2.579336,TRY,23.43,-9.039526226445
28,"05-21-2015",225612941,AUD,USD,-3691000.24,2913671.89845576,0.789399,225612951,3691000.24,-2913055.50141568,0.789232,USD,616.39704008,-616.39704008
29,"05-21-2015",225613021,CAD,USD,-74379.74,61000,1.21934,225613031,74385.047,-61000,1.219427,CAD,5.307,-4.3494652298094
30,"05-21-2015",225613101,CHF,USD,-117660.942,126000,0.933817,225613111,117648.09,-126000,0.933715,CHF,-12.852,13.7161152611532
31,"05-21-2015",225613181,EUR,USD,-4432000,4930449.312,1.112466,225613191,4432000,-4930675.344,1.112517,USD,-226.032,226.032
32,"05-21-2015",225613261,GBP,USD,993000,-1544744.562,1.555634,225613271,-993000,1544696.898,1.555586,USD,-47.664,47.664
33,"05-21-2015",225613341,JPY,USD,-9327311,77000,121.13392,225613351,9327094,-77000,121.1311,JPY,-217,1.7929439031
34,"05-21-2015",225613381,MXN,USD,-379512.7,25000,15.180508,225613391,379636.8,-25000,15.185472,MXN,124.1,-8.15090671428
35,"05-21-2015",225613421,NOK,USD,37786.675,-5000,7.557335,225613431,-37791.115,5000,7.558223,NOK,-4.44,0.586661381592
36,"05-21-2015",225613461,NZD,USD,-554000,405670.378,0.732257,225613471,554000,-405518.028,0.731982,USD,152.35,-152.35
37,"05-21-2015",225613501,SEK,USD,-841473.521,101000,8.331421,225613511,841419.486,-101000,8.330886,SEK,-54.035,6.478201185598
38,"05-21-2015",225613541,SGD,USD,-124131.657,93000,1.334749,225613551,124141.98,-93000,1.33486,SGD,10.323,-7.7273748037197
39,"05-21-2015",225613581,TRY,USD,-77401.71,30000,2.580057,225613591,77495.22,-30000,2.583174,TRY,93.51,-36.077084824365
40,"05-21-2015",225613621,USD,ZAR,20000,-236653.76,11.832688,225613631,-20000,236809.6,11.84048,ZAR,155.84,-13.1521168
41,"05-21-2015",225612981,AUD,USD,15000,-11840.985,0.789399,225612991,-15000,11838.48,0.789232,USD,-2.505,2.505
42,"05-21-2015",225613081,CHF,USD,-37352.68,40000,0.933817,225613091,37348.6,-40000,0.933715,CHF,-4.08,4.354322305128
43,"05-21-2015",225613201,EUR,USD,-270000,300365.82,1.112466,225613211,270000,-300379.59,1.112517,USD,-13.77,13.77
44,"05-21-2015",225613241,GBP,USD,-2000,3111.268,1.555634,225613251,2000,-3111.172,1.555586,USD,0.096,-0.096
45,"05-21-2015",225613301,JPY,USD,2543812,-21000,121.13392,225613311,-2543753,21000,121.1311,JPY,59,-0.4874824437
46,"05-21-2015",225613981,AUD,GBP,-5910843,3000000,1.970281,225613991,5911902,-3000000,1.970634,AUD,1059,-836.0805
47,"05-21-2015",225579071,CAD,USD,-3753066.96,3078000,1.21932,225579081,3753143.91,-3078000,1.219345,CAD,76.95,-63.06601647519
48,"05-21-2015",225612961,AUD,USD,-3008000,2374512.192,0.789399,225612971,3008000,-2374009.856,0.789232,USD,502.336,-502.336
49,"05-21-2015",225613041,CAD,USD,-3753128.52,3078000,1.21934,225613051,3753396.306,-3078000,1.219427,CAD,267.786,-219.469737333661
50,"05-21-2015",225613121,CHF,USD,46690.85,-50000,0.933817,225613131,-46685.75,50000,0.933715,CHF,5.1,-5.44290288141
51,"05-21-2015",225613161,EUR,USD,-7682000,8545963.812,1.112466,225613171,7682000,-8546355.594,1.112517,USD,-391.782,391.782
52,"05-21-2015",225613321,JPY,USD,-565089736,4665000,121.13392,225613331,565076581,-4665000,121.1311,JPY,-13155,108.6920601165
