#,Trade Date,Near Ticket,Ccy 1,Ccy 2,Qty 1,Qty 2,Near Price,Far Ticket,Far Qty 1,Far Qty 2,Far Price,Risk Ccy,Risk Ccy Amt,USD Cost Amt
1,"03-24-2015",195500081,CAD,USD,278057.886,-222000,1.252513,195500091,-278061.216,222000,1.252528,CAD,-3.33,2.663680358295
2,"03-24-2015",195530241,AUD,CAD,-215000,211779.945,0.985023,195530251,215000,-211769.195,0.984973,CAD,10.75,-8.598968123625
3,"03-24-2015",195530301,AUD,CHF,65000,-49479.495,0.761223,195530311,-65000,49475.27,0.761158,CHF,-4.225,4.4044689817375
4,"03-24-2015",195530381,AUD,EUR,-119463.46,86000,1.38911,195530391,119472.146,-86000,1.389211,AUD,8.686,-6.8375441885726
5,"03-24-2015",195530441,CAD,EUR,39680.845,-29000,1.368305,195530451,-39681.686,29000,1.368334,CAD,-0.841,0.6727192736715
6,"03-24-2015",195530511,CHF,EUR,-323571.438,306000,1.057423,195530521,323565.93,-306000,1.057405,CHF,-5.508,5.741968083174
7,"03-24-2015",195530561,EUR,GBP,-1185000,866154.42,0.730932,195530571,1185000,-866168.64,0.730944,GBP,-14.22,21.109934212164
8,"03-24-2015",195530941,AUD,GBP,-3829432.945,2015000,1.900463,195530951,3829642.505,-2015000,1.900567,AUD,209.56,-164.963822260796
9,"03-24-2015",195530981,CAD,CHF,67000,-51777.399,0.772797,195530991,-67000,51775.322,0.772766,CHF,-2.077,2.1652265266435
10,"03-24-2015",195531021,CAD,GBP,-434304,232000,1.872,195531031,434306.784,-232000,1.872012,CAD,2.784,-2.226932768016
11,"03-24-2015",195531061,CHF,GBP,-18806.801,13000,1.446677,195531071,18806.112,-13000,1.446624,CHF,-0.689,0.7182672493295
12,"03-24-2015",195531101,GBP,JPY,-110000,19666081,178.782562,195531111,110000,-19665734,178.7794,JPY,347,-2.8976474083
13,"03-24-2015",195531141,AUD,JPY,-182000,17123497,94.085151,195531151,182000,-17122268,94.0784,JPY,1229,-10.2628491781
14,"03-24-2015",195531181,AUD,NOK,124.87,-775.78059822,6.212706,195531191,-124.87,775.76673765,6.212595,NOK,-0.01386057,0.00176215106748797
15,"03-24-2015",195531221,AUD,NZD,-29000,29787.176,1.027144,195531231,29000,-29788.22,1.02718,NZD,-1.044,0.7974633397428
16,"03-24-2015",195531281,CAD,JPY,-40000,3820750,95.518756,195531291,40000,-3820664,95.5166,JPY,86,-0.7181489254
17,"03-24-2015",195531341,CHF,JPY,-36000,4448936,123.581576,195531351,36000,-4449024,123.584,JPY,-88,0.7348500632
18,"03-24-2015",195531381,EUR,JPY,178000,-23264936,130.701893,195531391,-178000,23264991,130.7022,JPY,55,-0.4592812895
19,"03-24-2015",195531441,EUR,NOK,-13000,112197.956,8.630612,195531451,13000,-112202.948,8.630996,NOK,-4.992,0.6346534182144
20,"03-24-2015",195531561,AUD,SEK,224.27,-1503.80278921,6.705323,195531571,-224.27,1503.70971716,6.704908,SEK,-0.09307205,0.010941643633031
21,"03-24-2015",195531601,AUD,SGD,-114.69,123.33475875,1.075375,195531611,114.69,-123.31961967,1.075243,SGD,0.01513908,-0.0110756262395093
22,"03-24-2015",195531661,AUD,USD,-8016000,6300559.968,0.785998,195531671,8016000,-6300183.216,0.785951,USD,376.752,-376.752
23,"03-24-2015",195531721,CAD,NZD,58496.621,-61000,0.958961,195531731,-58491.07,61000,0.95887,CAD,5.551,-4.4402671678365
24,"03-24-2015",195531761,CHF,NZD,-103016.375,139000,0.741125,195531771,103003.309,-139000,0.741031,CHF,-13.066,13.621015790623
25,"03-24-2015",195531801,EUR,NZD,-370000,527903.05,1.426765,195531811,370000,-527959.29,1.426917,NZD,-56.24,42.959136232888
26,"03-24-2015",195531841,GBP,NZD,651000,-1270707.081,1.951931,195531851,-651000,1270832.073,1.952123,NZD,124.992,-95.4756108823104
27,"03-24-2015",195531881,JPY,NZD,-12915431,141000,91.598802,195531891,12914077,-141000,91.5892,JPY,-1354,11.3066702906
28,"03-24-2015",195531921,JPY,SGD,-4811366,55000,87.479388,195531931,4811614,-55000,87.4839,JPY,248,-2.0709410872
29,"03-24-2015",195532101,GBP,USD,1558000,-2327433.88,1.49386,195532111,-1558000,2327421.416,1.493852,USD,-12.464,12.464
30,"03-24-2015",195532181,JPY,USD,1196962,-10000,119.69626,195532191,-1196952,10000,119.6952,JPY,10,-0.083505689
31,"03-24-2015",195532241,NZD,USD,-1642000,1256333.608,0.765124,195532251,1642000,-1256202.248,0.765044,USD,131.36,-131.36
32,"03-24-2015",195532301,SEK,USD,170629.3,-20000,8.531465,195532311,-170627.62,20000,8.531381,SEK,1.68,-0.197502486552
33,"03-24-2015",195532341,SGD,USD,-181965.945,133000,1.368165,195532351,181981.639,-133000,1.368283,SGD,15.694,-11.4816011410772
34,"03-24-2015",195532381,USD,ZAR,20,-238.54612,11.927306,195532391,-20,238.58748,11.929374,ZAR,0.04136,-0.003498997148856
35,"03-24-2015",195532421,CHF,USD,-360162.96,372000,0.96818,195532431,360151.8,-372000,0.96815,CHF,-11.16,11.63405297898
36,"03-24-2015",195532501,EUR,USD,-5596000,6109925.448,1.091838,195532511,5596000,-6109992.6,1.09185,USD,-67.152,67.152
37,"03-24-2015",195530461,CAD,EUR,-3885.53465935,2839.67,1.368305,195530471,3885.61700978,-2839.67,1.368334,CAD,0.08235043,-0.0658724393057499
38,"03-24-2015",195530261,AUD,CAD,20000,-19700.46,0.985023,195530271,-20000,19699.46,0.984973,CAD,-1,0.7999040115
39,"03-24-2015",195530361,AUD,EUR,34727.75,-25000,1.38911,195530371,-34730.275,25000,1.389211,AUD,-2.525,1.9876581943525
40,"03-24-2015",195531241,AUD,NZD,4000,-4108.576,1.027144,195531251,-4000,4108.72,1.02718,NZD,0.144,-0.1099949434128
41,"03-24-2015",195531301,CAD,JPY,10000,-955187,95.518756,195531311,-10000,955166,95.5166,JPY,-21,0.1753619469
42,"03-24-2015",195531401,EUR,JPY,-30000,3921056,130.701893,195531411,30000,-3921066,130.7022,JPY,-10,0.083505689
43,"03-24-2015",195531641,AUD,USD,109000,-85673.782,0.785998,195531651,-109000,85668.659,0.785951,USD,-5.123,5.123
44,"03-24-2015",195532121,GBP,USD,-20000,29877.2,1.49386,195532131,20000,-29877.04,1.493852,USD,0.16,-0.16
45,"03-24-2015",195532161,JPY,USD,16996868,-142000,119.69626,195532171,-16996718,142000,119.6952,JPY,150,-1.252585335
46,"03-24-2015",195532261,NZD,USD,-890000,680960.36,0.765124,195532271,890000,-680889.16,0.765044,USD,71.2,-71.2
47,"03-24-2015",195532461,EUR,USD,-1397000,1525297.686,1.091838,195532471,1397000,-1525314.45,1.09185,USD,-16.764,16.764
48,"03-24-2015",195500061,CAD,USD,-2855729.64,2280000,1.252513,195500071,2855763.84,-2280000,1.252528,CAD,34.2,-27.3567171933
49,"03-24-2015",195531681,AUD,USD,-3900000,3065392.2,0.785998,195531691,3900000,-3065208.9,0.785951,USD,183.3,-183.3
50,"03-24-2015",195532201,JPY,USD,-435694386,3640000,119.69626,195532211,435690528,-3640000,119.6952,JPY,-3858,32.2164948162
51,"03-24-2015",195532481,EUR,USD,-3720000,4061637.36,1.091838,195532491,3720000,-4061682,1.09185,USD,-44.64,44.64
