#,Trade Date,Near Ticket,Ccy 1,Ccy 2,Qty 1,Qty 2,Near Price,Far Ticket,Far Qty 1,Far Qty 2,Far Price,Risk Ccy,Risk Ccy Amt,USD Cost Amt
1,"04-27-2015",210996011,AUD,JPY,133000,-12384810,93.118874,210996021,-133000,12383364,93.108,JPY,-1446,12.1466374332
2,"04-27-2015",210996051,CAD,JPY,80000,-7829351,97.866891,210996061,-80000,7829104,97.8638,JPY,-247,2.0748405574
3,"04-27-2015",210996091,CHF,JPY,-17000,2120677,124.745712,210996101,17000,-2120763,124.7508,JPY,-86,0.7224141212
4,"04-27-2015",210996131,EUR,JPY,-158000,20419330,129.236268,210996141,158000,-20419651,129.2383,JPY,-321,2.6964527082
5,"04-27-2015",210996191,GBP,JPY,190000,-34297962,180.515591,210996201,-190000,34297356,180.5124,JPY,-606,5.0904995052
6,"04-27-2015",210996231,JPY,NZD,-5795913,64000,90.561153,210996241,5794899,-64000,90.5453,JPY,-1014,8.5177664988
7,"04-27-2015",210996271,JPY,SGD,-357101,4000,89.27526,210996281,357134,-4000,89.2837,JPY,33,-0.2772054186
8,"04-27-2015",210996331,JPY,USD,-126339500,1062000,118.963748,210996341,126339024,-1062000,118.9633,JPY,-476,3.9984781592
9,"04-27-2015",210996391,USD,ZAR,68000,-823793.072,12.114604,210996401,-68000,823935.328,12.116696,ZAR,142.256,-11.8339061484736
10,"04-27-2015",210994311,CAD,USD,615118.9,-506000,1.21565,210994321,-615126.996,506000,1.215666,CAD,-8.096,6.6936750723744
11,"04-27-2015",210994351,TRY,USD,-8169.585,3000,2.723195,210994361,8172.039,-3000,2.724013,TRY,2.454,-0.9176061472716
12,"04-27-2015",210994701,AUD,CAD,-144000,137025.072,0.951563,210994711,144000,-137018.736,0.951519,CAD,6.336,-5.2385283175104
13,"04-27-2015",210994741,AUD,CHF,33000,-24636.084,0.746548,210994751,-33000,24634.137,0.746489,CHF,-1.947,2.0383188195711
14,"04-27-2015",210994781,AUD,EUR,401166.391,-289000,1.388119,210994791,-401193.268,289000,1.388212,AUD,-26.877,21.1103413864341
15,"04-27-2015",210994821,AUD,GBP,-2603987.019,1343000,1.938933,210994831,2604124.005,-1343000,1.939035,AUD,136.986,-107.594643195374
16,"04-27-2015",210994891,AUD,NZD,-507000,521250.756,1.028108,210994901,507000,-521266.473,1.028139,NZD,-15.717,12.0163605358836
17,"04-27-2015",210994981,AUD,USD,-3085000.24,2414783.93786,0.78275,210994991,3085000.24,-2414638.94284872,0.782703,USD,144.99501128,-144.99501128
18,"04-27-2015",210995041,CAD,CHF,34000,-26674.666,0.784549,210995051,-34000,26673.68,0.78452,CHF,-0.986,1.0322456888018
19,"04-27-2015",210995081,CAD,EUR,89820.044,-68000,1.320883,210995091,-89822.22,68000,1.320915,CAD,-2.176,1.7990905332864
20,"04-27-2015",210995121,CAD,GBP,-1337638.05,725000,1.845018,210995131,1337650.375,-725000,1.845035,CAD,12.325,-10.1901612236925
21,"04-27-2015",210995161,CAD,NZD,-1456812.552,1574000,0.925548,210995171,1456705.52,-1574000,0.92548,CAD,-107.032,88.4927656060248
22,"04-27-2015",210995211,CHF,EUR,412446.206,-398000,1.036297,210995221,-412439.042,398000,1.036279,CHF,7.164,-7.5000082297932
23,"04-27-2015",210995251,CHF,GBP,-63690.264,44000,1.447506,210995261,63688.328,-44000,1.447462,CHF,-1.936,2.0268028940368
24,"04-27-2015",210995291,CHF,NZD,-24688.692,34000,0.726138,210995301,24685.904,-34000,0.726056,CHF,-2.788,2.9187636717844
25,"04-27-2015",210995371,CHF,USD,-503580,528000,0.95375,210995381,503568.384,-528000,0.953728,CHF,-11.616,12.1608173642208
26,"04-27-2015",210995411,EUR,GBP,-352000,252003.488,0.715919,210995421,352000,-252008.064,0.715932,GBP,-4.576,6.9696013230272
27,"04-27-2015",210995451,EUR,NZD,-85000,121306.56,1.427136,210995461,85000,-121318.715,1.427279,NZD,-12.155,9.293049711374
28,"04-27-2015",210995511,EUR,USD,-5740000,6236797,1.08655,210995521,5740000,-6236865.88,1.086562,USD,-68.88,68.88
29,"04-27-2015",210995571,GBP,NZD,-450000,897044.85,1.993433,210995581,450000,-897129.45,1.993621,NZD,-84.6,64.68054344568
30,"04-27-2015",210995631,GBP,USD,147000,-223101.9,1.5177,210995641,-147000,223099.989,1.517687,USD,-1.911,1.911
31,"04-27-2015",210995711,NZD,USD,-3098000,2358662.3,0.76135,210995721,3098000,-2358426.852,0.761274,USD,235.448,-235.448
32,"04-27-2015",210995771,SEK,USD,466568.1,-54000,8.64015,210995781,-466560.162,54000,8.640003,SEK,7.938,-0.9230437519884
33,"04-27-2015",210995811,SGD,USD,1332.45,-1000,1.33245,210995821,-1332.373,1000,1.332373,SGD,0.077,-0.0580383410992
34,"04-27-2015",210996171,GBP,JPY,8000,-1444124,180.515591,210996181,-8000,1444099,180.5124,JPY,-25,0.210004105
35,"04-27-2015",210996311,JPY,USD,-1189637,10000,118.963748,210996321,1189633,-10000,118.9633,JPY,-4,0.0336006568
36,"04-27-2015",210994841,AUD,GBP,19389.33,-10000,1.938933,210994851,-19390.35,10000,1.939035,AUD,-1.02,0.801151475766
37,"04-27-2015",210994921,AUD,NZD,-4000,4112.432,1.028108,210994931,4000,-4112.556,1.028139,NZD,-0.124,0.0948036334192
38,"04-27-2015",210994961,AUD,USD,-210000,164377.5,0.78275,210994971,210000,-164367.63,0.782703,USD,9.87,-9.87
39,"04-27-2015",210995351,CHF,USD,-47687.5,50000,0.95375,210995361,47686.4,-50000,0.953728,CHF,-1.1,1.15159255343
40,"04-27-2015",210995491,EUR,USD,-510000,554140.5,1.08655,210995501,510000,-554146.62,1.086562,USD,-6.12,6.12
41,"04-27-2015",210995651,GBP,USD,-215000,326305.5,1.5177,210995661,215000,-326302.705,1.517687,USD,2.795,-2.795
42,"04-27-2015",210995731,NZD,USD,20000,-15227,0.76135,210995741,-20000,15225.48,0.761274,USD,-1.52,1.52
43,"04-27-2015",210996351,JPY,USD,-818470586,6880000,118.963748,210996361,818467504,-6880000,118.9633,JPY,-3082,25.8893060644
44,"04-27-2015",210995001,AUD,USD,-5540000,4336435,0.78275,210995011,5540000,-4336174.62,0.782703,USD,260.38,-260.38
45,"04-27-2015",210995331,CHF,USD,47687.5,-50000,0.95375,210995341,-47686.4,50000,0.953728,CHF,1.1,-1.15159255343
46,"04-27-2015",210995531,EUR,USD,-5550000,6030352.5,1.08655,210995541,5550000,-6030419.1,1.086562,USD,-66.6,66.6
47,"04-27-2015",210995591,GBP,NZD,3500000,-6977015.5,1.993433,210995601,-3500000,6977673.5,1.993621,NZD,658,-503.0708934664
48,"04-27-2015",210995671,GBP,USD,-4550000,6905535,1.5177,210995681,4550000,-6905475.85,1.517687,USD,59.15,-59.15
49,"04-27-2015",210995831,SGD,USD,-3.0246615,2.27,1.33245,210995841,3.02448671,-2.27,1.332373,SGD,-0.00017479,0.000131747034295184
