#,Trade Date,Near Ticket,Ccy 1,Ccy 2,Qty 1,Qty 2,Near Price,Far Ticket,Far Qty 1,Far Qty 2,Far Price,Risk Ccy,Risk Ccy Amt,USD Cost Amt
1,"08-18-2015",272569801,CAD,USD,340485.08,-260000,1.309558,272569811,-340487.94,260000,1.309569,CAD,-2.86,2.1903120811
2,"08-18-2015",272574971,CAD,USD,20951.328,-16000,1.309458,272574981,-20951.424,16000,1.309464,CAD,-0.096,0.07352096496
3,"08-18-2015",272619191,AUD,CAD,-3943000,3805854.574,0.965218,272619201,3943000,-3805688.968,0.965176,CAD,165.606,-126.82825961631
4,"08-18-2015",272619251,AUD,CHF,42000,-30281.748,0.720994,272619261,-42000,30279.48,0.72094,CHF,-2.268,2.320063875738
5,"08-18-2015",272619291,AUD,EUR,-551187.758,367000,1.501874,272619301,551221.522,-367000,1.501966,AUD,33.764,-24.7886363938452
6,"08-18-2015",272619331,AUD,GBP,-2444148.63,1155000,2.116146,272619341,2444253.735,-1155000,2.116237,AUD,105.105,-77.1653130012765
7,"08-18-2015",272619391,AUD,JPY,-181000,16586715,91.639313,272619401,181000,-16585808,91.6343,JPY,907,-7.2909263025
8,"08-18-2015",272619471,AUD,NZD,-22000,24558.952,1.116316,272619481,22000,-24559.656,1.116348,NZD,-0.704,0.4641513869696
9,"08-18-2015",272619511,AUD,USD,-662000,487521.956,0.736438,272619521,662000,-487498.124,0.736402,USD,23.832,-23.832
10,"08-18-2015",272619591,CAD,CHF,29000,-21657.345,0.746805,272619601,-29000,21656.62,0.74678,CHF,-0.725,0.7416429937875
11,"08-18-2015",272619651,CAD,EUR,-1210723.28,835000,1.449968,272619661,1210747.495,-835000,1.449997,CAD,24.215,-18.544897567775
12,"08-18-2015",272619691,CAD,GBP,-6014621.44,2944000,2.04301,272619701,6014630.272,-2944000,2.043013,CAD,8.832,-6.76392877632
13,"08-18-2015",272619731,CAD,JPY,4000,-379679,94.919835,272619741,-4000,379675,94.9189,JPY,-4,0.03215403
14,"08-18-2015",272619771,CAD,NZD,685821.292,-793000,0.864844,272619781,-685768.161,793000,0.864777,CAD,53.131,-40.690024888435
15,"08-18-2015",272619811,CHF,EUR,434219.642,-401000,1.082842,272619821,-434210.419,401000,1.082819,CHF,9.223,-9.4347218368305
16,"08-18-2015",272619851,CHF,GBP,-691155.237,453000,1.525729,272619861,691131.228,-453000,1.525676,CHF,-24.009,24.5601470866815
17,"08-18-2015",272619891,CHF,JPY,269000,-34190251,127.101305,272619901,-269000,34191218,127.1049,JPY,967,-7.7732367525
18,"08-18-2015",272619931,CHF,NZD,34876.926,-54000,0.645869,272619941,-34872.93,54000,0.645795,CHF,3.996,-4.087731590586
19,"08-18-2015",272619991,CHF,USD,676509.73,-691000,0.97903,272620001,-676488.309,691000,0.978999,CHF,21.421,-21.9127373378235
20,"08-18-2015",272620101,EUR,GBP,-945000,670686.345,0.709721,272620111,945000,-670698.63,0.709734,GBP,-12.285,19.243503537804
21,"08-18-2015",272620151,EUR,JPY,249000,-34270040,137.630684,272620161,-249000,34270343,137.6319,JPY,303,-2.4356677725
22,"08-18-2015",272620231,EUR,NZD,1274000,-2135945.084,1.676566,272620241,-1274000,2136148.924,1.676726,NZD,203.84,-134.392924318016
23,"08-18-2015",272620271,EUR,SEK,-1000,9448.099,9.448099,272620281,1000,-9448.024,9.448024,SEK,0.075,-0.00877591878
24,"08-18-2015",272620351,EUR,USD,-3261000,3606783.396,1.106036,272620361,3261000,-3606825.789,1.106049,USD,-42.393,42.393
25,"08-18-2015",272620411,GBP,JPY,1119000,-216998888,193.922152,272620421,-1119000,216996591,193.9201,JPY,-2297,18.4644517275
26,"08-18-2015",272620451,GBP,NZD,4957000,-11709856.659,2.362287,272620461,-4957000,11710753.876,2.362468,NZD,897.217,-591.540504208386
27,"08-18-2015",272620491,GBP,USD,-355000,553235.195,1.558409,272620501,355000,-553230.935,1.558397,USD,4.26,-4.26
28,"08-18-2015",272620571,JPY,NZD,6485176,-79000,82.090836,272620581,-6484604,79000,82.0836,JPY,572,-4.59802629
29,"08-18-2015",272620651,JPY,USD,-33846582,272000,124.435964,272620661,33846456,-272000,124.4355,JPY,-126,1.012851945
30,"08-18-2015",272620771,NZD,USD,595000,-392523.285,0.659703,272620781,-595000,392492.94,0.659652,USD,-30.345,30.345
31,"08-18-2015",272620851,SEK,USD,-854230.5,100000,8.542305,272620861,854215.9,-100000,8.542159,SEK,-14.6,1.70837885584
32,"08-18-2015",272620891,SGD,USD,-60524.134,43000,1.407538,272620901,60531.1,-43000,1.4077,SGD,6.966,-4.959653839839
33,"08-18-2015",272619351,AUD,GBP,-21161.46,10000,2.116146,272619361,21162.37,-10000,2.116237,AUD,0.91,-0.668097948063
34,"08-18-2015",272619451,AUD,NZD,-100000,111631.6,1.116316,272619461,100000,-111634.8,1.116348,NZD,-3.2,2.10977903168
35,"08-18-2015",272619551,AUD,USD,-3000,2209.314,0.736438,272619561,3000,-2209.206,0.736402,USD,0.108,-0.108
36,"08-18-2015",272620011,CHF,USD,-58741.8,60000,0.97903,272620021,58739.94,-60000,0.978999,CHF,-1.86,1.90269788751
37,"08-18-2015",272620171,EUR,JPY,1000,-137630,137.630684,272620181,-1000,137631,137.6319,JPY,1,-0.0080385075
38,"08-18-2015",272620331,EUR,USD,-894000,988796.184,1.106036,272620341,894000,-988807.806,1.106049,USD,-11.622,11.622
39,"08-18-2015",272620391,GBP,JPY,115000,-22301047,193.922152,272620401,-115000,22300811,193.9201,JPY,-236,1.89708777
40,"08-18-2015",272620511,GBP,USD,-100000,155840.9,1.558409,272620521,100000,-155839.7,1.558397,USD,1.2,-1.2
41,"08-18-2015",272620631,JPY,USD,-27375912,220000,124.435964,272620641,27375810,-220000,124.4355,JPY,-102,0.819927765
42,"08-18-2015",272620691,MXN,USD,1645092.6,-100000,16.450926,272620701,-1645181.5,100000,16.451815,MXN,-88.9,5.4166045465
43,"08-18-2015",272620731,NOK,USD,-822711.7,100000,8.227117,272620741,822730.9,-100000,8.227309,NOK,19.2,-2.31941610048
44,"08-18-2015",272620791,NZD,USD,-5000,3298.515,0.659703,272620801,5000,-3298.26,0.659652,USD,0.255,-0.255
45,"08-18-2015",272569781,CAD,USD,-878713.418,671000,1.309558,272569791,878720.799,-671000,1.309569,CAD,7.381,-5.652690024685
46,"08-18-2015",272619211,AUD,CAD,1000,-965.218,0.965218,272619221,-1000,965.176,0.965176,CAD,-0.042,0.03216542217
47,"08-18-2015",272619411,AUD,JPY,-2660000,243760572,91.639313,272619421,2660000,-243747238,91.6343,JPY,13334,-107.185459005
48,"08-18-2015",272619531,AUD,USD,-5124000,3773508.312,0.736438,272619541,5124000,-3773323.848,0.736402,USD,184.464,-184.464
49,"08-18-2015",272619631,CAD,EUR,-23199.488,16000,1.449968,272619641,23199.952,-16000,1.449997,CAD,0.464,-0.35535133064
50,"08-18-2015",272619971,CHF,USD,58741.8,-60000,0.97903,272619981,-58739.94,60000,0.978999,CHF,1.86,-1.90269788751
51,"08-18-2015",272620071,EUR,GBP,-350000,248402.35,0.709721,272620081,350000,-248406.9,0.709734,GBP,-4.55,7.12722353252
52,"08-18-2015",272620211,EUR,NZD,14000,-23471.924,1.676566,272620221,-14000,23474.164,1.676726,NZD,2.24,-1.476845322176
53,"08-18-2015",272620311,EUR,USD,-6363000,7037707.068,1.106036,272620321,6363000,-7037789.787,1.106049,USD,-82.719,82.719
54,"08-18-2015",272620531,GBP,USD,10000,-15584.09,1.558409,272620541,-10000,15583.97,1.558397,USD,-0.12,0.12
55,"08-18-2015",272620611,JPY,USD,-680664723,5470000,124.435964,272620621,680662185,-5470000,124.4355,JPY,-2538,20.401732035
56,"08-18-2015",272620811,NZD,USD,872000,-575261.016,0.659703,272620821,-872000,575216.544,0.659652,USD,-44.472,44.472
