#,Trade Date,Near Ticket,Ccy 1,Ccy 2,Qty 1,Qty 2,Near Price,Far Ticket,Far Qty 1,Far Qty 2,Far Price,Risk Ccy,Risk Ccy Amt,USD Cost Amt
1,"07-20-2015",258869341,CAD,USD,332526.592,-256000,1.298932,258869351,-332529.92,256000,1.298945,CAD,-3.328,2.5599999998976
2,"07-20-2015",258858921,AUD,CAD,-101000,96669.827,0.957127,258858931,101000,-96664.777,0.957077,CAD,5.05,-3.88461538446
3,"07-20-2015",258858961,AUD,CHF,42000,-29754.648,0.708444,258858971,-42000,29752.212,0.708386,CHF,-2.436,2.5263015770244
4,"07-20-2015",258859001,AUD,EUR,261631.164,-178000,1.469838,258859011,-261648.964,178000,1.469938,AUD,-17.8,13.1209624872
5,"07-20-2015",258859041,AUD,GBP,-1751587.654,827000,2.118002,258859051,1751679.451,-827000,2.118113,AUD,91.797,-67.666572665028
6,"07-20-2015",258859101,AUD,JPY,294000,-26887516,91.454138,258859111,-294000,26885594,91.4476,JPY,-1922,15.4610467702
7,"07-20-2015",258859161,AUD,NZD,1237000,-1399591.28,1.13144,258859171,-1237000,1399641.997,1.131481,NZD,50.717,-33.2864007759026
8,"07-20-2015",258859201,AUD,USD,470000,-346319.5,0.73685,258859211,-470000,346299.29,0.736807,USD,-20.21,20.21
9,"07-20-2015",258859281,CAD,CHF,-10000,7401.78,0.740178,258859291,10000,-7401.5,0.74015,CHF,0.28,-0.290379491612
10,"07-20-2015",258859321,CAD,EUR,-87222.964,62000,1.406822,258859331,87224.948,-62000,1.406854,CAD,1.984,-1.5261538460928
11,"07-20-2015",258859361,CAD,GBP,-79060.683,39000,2.027197,258859371,79060.917,-39000,2.027203,CAD,0.234,-0.1799999999928
12,"07-20-2015",258859401,CAD,JPY,-534000,51024058,95.550672,258859411,534000,-51022952,95.5486,JPY,1106,-8.8969395046
13,"07-20-2015",258859441,CAD,NZD,-22840.299,27000,0.845937,258859451,22838.571,-27000,0.845873,CAD,-1.728,1.3292307691776
14,"07-20-2015",258859521,CHF,EUR,444634.246,-427000,1.041298,258859531,-444626.133,427000,1.041279,CHF,8.113,-8.4137457694577
15,"07-20-2015",258859561,CHF,GBP,16505.357,-11000,1.500487,258859571,-16504.752,11000,1.500432,CHF,0.605,-0.6274271158045
16,"07-20-2015",258859601,CHF,JPY,-18000,2323646,129.091476,258859611,18000,-2323675,129.0931,JPY,-29,0.2332832239
17,"07-20-2015",258859641,CHF,NZD,-1878.432,3000,0.626144,258859651,1878.222,-3000,0.626074,CHF,-0.21,0.217784618709
18,"07-20-2015",258859701,CHF,USD,-329777.35,343000,0.96145,258859711,329768.775,-343000,0.961425,CHF,-8.575,8.8928719306175
19,"07-20-2015",258859761,EUR,GBP,-114000,79113.036,0.693974,258859771,114000,-79114.518,0.693987,GBP,-1.482,2.3060218298442
20,"07-20-2015",258859801,EUR,JPY,291000,-39117020,134.422751,258859811,-291000,39117151,134.4232,JPY,131,-1.0537966321
21,"07-20-2015",258859861,EUR,NOK,-1000,8851.497,8.851497,258859871,1000,-8851.784,8.851784,NOK,-0.287,0.0348872585327
22,"07-20-2015",258859901,EUR,NZD,287000,-477290.471,1.663033,258859911,-287000,477340.409,1.663207,NZD,49.938,-32.7751302708564
23,"07-20-2015",258859941,EUR,SEK,1000,-9371.848,9.371848,258859951,-1000,9371.852,9.371852,SEK,0.004,-0.0004636569656
24,"07-20-2015",258859981,EUR,SGD,32000,-47461.856,1.483183,258859991,-32000,47466.56,1.48333,SGD,4.704,-3.4314101436384
25,"07-20-2015",258860021,EUR,USD,-1955000,2117362.75,1.08305,258860031,1955000,-2117388.165,1.083063,USD,-25.415,25.415
26,"07-20-2015",258860101,GBP,JPY,-19000,3680301,193.700075,258860111,19000,-3680227,193.6962,JPY,74,-0.5952744334
27,"07-20-2015",258860161,GBP,USD,-574000,895813.1,1.56065,258860171,574000,-895808.508,1.560642,USD,4.592,-4.592
28,"07-20-2015",258860221,JPY,NZD,2829046,-35000,80.829894,258860231,-2828749,35000,80.8214,JPY,297,-2.3891419827
29,"07-20-2015",258860261,JPY,SGD,-181262,2000,90.631275,258860271,181259,-2000,90.6298,JPY,-3,0.0241327473
30,"07-20-2015",258860301,GBP,NZD,149000,-357007.576,2.396024,258860311,-149000,357038.121,2.396229,NZD,30.545,-20.047185592601
31,"07-20-2015",258860381,JPY,USD,53865910,-434000,124.115,258860391,-53865432,434000,124.1139,JPY,478,-3.8451510698
32,"07-20-2015",258860421,NOK,USD,-1806597.65,221000,8.17465,258860431,1806640.966,-221000,8.174846,NOK,43.316,-5.2654233122036
33,"07-20-2015",258860461,NZD,USD,623000,-405791.05,0.65135,258860471,-623000,405756.785,0.651295,USD,-34.265,34.265
34,"07-20-2015",258860521,SEK,USD,-1194017.4,138000,8.6523,258860531,1194001.668,-138000,8.652186,SEK,-15.732,1.8235628457048
35,"07-20-2015",258860581,SGD,USD,-720330.7,526000,1.36945,258860591,720389.086,-526000,1.369561,SGD,58.386,-42.5906276884506
36,"07-20-2015",258862481,MXN,USD,31844.1,-2000,15.92205,258862491,-31846.038,2000,15.923019,MXN,-1.938,0.1210483057818
37,"07-20-2015",258859481,CAD,SGD,-45.8,48.2859782,1.054279,258859491,45.8,-48.2858408,1.054276,SGD,0.0001374,-0.00010022868914454
38,"07-20-2015",258860561,SGD,USD,36.509537,-26.66,1.36945,258860571,-36.51249626,26.66,1.369561,SGD,-0.00295926,0.00215868086344885
39,"07-20-2015",258859241,AUD,USD,-5118,3771.1983,0.73685,258859251,5118,-3770.978226,0.736807,USD,0.220074,-0.220074
40,"07-20-2015",258859681,CHF,USD,-48072.5,50000,0.96145,258859691,48071.25,-50000,0.961425,CHF,-1.25,1.296337016125
41,"07-20-2015",258859821,EUR,JPY,-18000,2419609,134.422751,258859831,18000,-2419617,134.4232,JPY,-8,0.0643539928
42,"07-20-2015",258860061,EUR,USD,-804000,870772.2,1.08305,258860071,804000,-870782.652,1.083063,USD,-10.452,10.452
43,"07-20-2015",258860181,GBP,USD,65000,-101442.25,1.56065,258860191,-65000,101441.73,1.560642,USD,-0.52,0.52
44,"07-20-2015",258860361,JPY,USD,-2978760,24000,124.115,258860371,2978733,-24000,124.1139,JPY,-27,0.2171947257
45,"07-20-2015",258860481,NZD,USD,1,-0.65135,0.65135,258860491,-1,0.651295,0.651295,USD,-5.5E-5,5.5E-5
46,"07-20-2015",258869361,CAD,USD,-779359.2,600000,1.298932,258869371,779367,-600000,1.298945,CAD,7.8,-5.99999999976
47,"07-20-2015",258859061,AUD,GBP,-5295005,2500000,2.118002,258859071,5295282.5,-2500000,2.118113,AUD,277.5,-204.55433091
48,"07-20-2015",258859121,AUD,JPY,-3000000,274362414,91.454138,258859131,3000000,-274342800,91.4476,JPY,19614,-157.7799018474
49,"07-20-2015",258859221,AUD,USD,-2264000,1668228.4,0.73685,258859231,2264000,-1668131.048,0.736807,USD,97.352,-97.352
50,"07-20-2015",258859721,CHF,USD,48072.5,-50000,0.96145,258859731,-48071.25,50000,0.961425,CHF,1.25,-1.296337016125
51,"07-20-2015",258860041,EUR,USD,-1300000,1407965,1.08305,258860051,1300000,-1407981.9,1.083063,USD,-16.9,16.9
52,"07-20-2015",258860141,GBP,USD,3000000,-4681950,1.56065,258860151,-3000000,4681926,1.560642,USD,-24,24
53,"07-20-2015",258860341,JPY,USD,-421991000,3400000,124.115,258860351,421987260,-3400000,124.1139,JPY,-3740,30.085491634
