#,Trade Date,Near Ticket,Ccy 1,Ccy 2,Qty 1,Qty 2,Near Price,Far Ticket,Far Qty 1,Far Qty 2,Far Price,Risk Ccy,Risk Ccy Amt,USD Cost Amt
1,"07-23-2015",260755261,CAD,USD,308978.322,-237000,1.303706,260755271,-308980.455,237000,1.303715,CAD,-2.133,1.6377457002174
2,"07-23-2015",260755321,TRY,USD,-10841.312,4000,2.710328,260755331,10844.524,-4000,2.711131,TRY,3.212,-1.1748139206232
3,"07-23-2015",260767601,EUR,USD,-1000,1095.067,1.095067,260767611,1000,-1095.106,1.095106,USD,-0.039,0.039
4,"07-23-2015",260750001,AUD,CAD,-149000,143204.794,0.961106,260750011,149000,-143181.103,0.960947,CAD,23.691,-18.1902641274498
5,"07-23-2015",260750041,AUD,CHF,44000,-31115.788,0.707177,260750051,-44000,31107.692,0.706993,CHF,-8.096,8.439487125872
6,"07-23-2015",260750081,AUD,EUR,-737629.508,497000,1.484164,260750091,737789.542,-497000,1.484486,AUD,160.034,-117.6089866
7,"07-23-2015",260750121,AUD,GBP,-2101287.136,992000,2.118233,260750131,2101628.384,-992000,2.118577,AUD,341.248,-250.7831552
8,"07-23-2015",260750201,AUD,JPY,466000,-42607306,91.431989,260750211,-466000,42598830,91.4138,JPY,-8476,68.3796536488
9,"07-23-2015",260750241,AUD,NZD,390000,-434256.81,1.113479,260750251,-390000,434287.23,1.113557,NZD,30.42,-20.103057
10,"07-23-2015",260750321,AUD,USD,-369000,271987.686,0.737094,260750331,369000,-271938.24,0.73696,USD,49.446,-49.446
11,"07-23-2015",260750361,CAD,CHF,737000,-542280.915,0.735795,260750371,-737000,542226.377,0.735721,CHF,-54.538,56.851871154991
12,"07-23-2015",260750401,CAD,EUR,435063.895,-305000,1.426439,260750411,-435086.16,305000,1.426512,CAD,-22.265,17.095362407567
13,"07-23-2015",260750441,CAD,GBP,1378268.419,-677000,2.035847,260750451,-1378261.649,677000,2.035837,CAD,6.77,-5.198095823006
14,"07-23-2015",260750481,CAD,JPY,-394000,37482026,95.132046,260750491,394000,-37480589,95.1284,JPY,1437,-11.5929167406
15,"07-23-2015",260750521,CAD,NZD,199389.036,-231000,0.863156,260750531,-199342.836,231000,0.862956,CAD,46.2,-35.47297297236
16,"07-23-2015",260750601,CHF,EUR,196268.842,-187000,1.049566,260750611,-196257.809,187000,1.049507,CHF,11.033,-11.5010945478935
17,"07-23-2015",260750641,CHF,GBP,-61416.565,41000,1.497965,260750651,61410.251,-41000,1.497811,CHF,-6.314,6.581882622623
18,"07-23-2015",260750681,CHF,JPY,-22000,2844414,129.29155,260750691,22000,-2844604,129.3002,JPY,-190,1.532814322
19,"07-23-2015",260750721,CHF,NZD,-1905.318,3000,0.635106,260750731,1904.7,-3000,0.6349,CHF,-0.618,0.644219743551
20,"07-23-2015",260750761,CHF,USD,-961331.826,1002000,0.959413,260750771,961249.662,-1002000,0.959331,CHF,-82.164,85.649953089198
21,"07-23-2015",260750861,EUR,GBP,-704000,493265.344,0.700661,260750871,704000,-493292.096,0.700699,GBP,-26.752,41.519104
22,"07-23-2015",260750921,EUR,JPY,81000,-10991702,135.700033,260750931,-81000,10991926,135.7028,JPY,224,-1.8071074112
23,"07-23-2015",260750961,EUR,NOK,-1000,8927.755,8.927755,260750971,1000,-8928.58,8.92858,NOK,-0.825,0.1009742485125
24,"07-23-2015",260751021,EUR,NZD,451000,-745472.783,1.652933,260751031,-451000,745684.302,1.653402,NZD,211.519,-139.78233115
25,"07-23-2015",260751061,EUR,SEK,1000,-9394.725,9.394725,260751071,-1000,9394.726,9.394726,SEK,0.001,-0.0001167712743
26,"07-23-2015",260751121,EUR,USD,-10240000,11201198.08,1.093867,260751131,10240000,-11201597.44,1.093906,USD,-399.36,399.36
27,"07-23-2015",260751181,GBP,JPY,-263000,50935490,193.671066,260751191,263000,-50933526,193.6636,JPY,1964,-15.8444596232
28,"07-23-2015",260751221,GBP,NZD,171000,-403469.712,2.359472,260751231,-171000,403562.052,2.360012,NZD,92.34,-61.022889
29,"07-23-2015",260751301,GBP,USD,-4631000,7231010.116,1.561436,260751311,4631000,-7230857.293,1.561403,USD,152.823,-152.823
30,"07-23-2015",260751341,JPY,NZD,328329,-4000,82.082369,260751351,-328242,4000,82.0605,JPY,87,-0.7018676106
31,"07-23-2015",260751401,JPY,SGD,-181394,2000,90.697038,260751411,181380,-2000,90.6904,JPY,-14,0.1129442132
32,"07-23-2015",260751461,JPY,USD,-98855056,797000,124.033948,260751471,98853424,-797000,124.0319,JPY,-1632,13.1660682816
33,"07-23-2015",260751521,MXN,USD,128880.216,-8000,16.110027,260751531,-128910.616,8000,16.113827,MXN,-30.4,1.87555912048
34,"07-23-2015",260751561,NOK,USD,-808077.303,99000,8.162397,260751571,808130.664,-99000,8.162936,NOK,53.361,-6.5310143937885
35,"07-23-2015",260751621,NZD,USD,-1940000,1283839.62,0.661773,260751631,1940000,-1283521.46,0.661609,USD,318.16,-318.16
36,"07-23-2015",260751661,SEK,USD,-8588.541,1000,8.588541,260751671,8588.204,-1000,8.588204,SEK,-0.337,0.0393519194391
37,"07-23-2015",260751721,SGD,USD,17778.319,-13000,1.367563,260751731,-17779.281,13000,1.367637,SGD,-0.962,0.7029337620006
38,"07-23-2015",260750561,CAD,SGD,-45.8,48.035727,1.048815,260750571,45.8,-48.0374674,1.048853,SGD,-0.0017404,0.00127171093491252
39,"07-23-2015",260751701,SGD,USD,36.45922958,-26.66,1.367563,260751711,-36.46120242,26.66,1.367637,SGD,-0.00197284,0.00144155493037969
40,"07-23-2015",260755201,CAD,USD,11733.354,-9000,1.303706,260755211,-11733.435,9000,1.303715,CAD,-0.081,0.0621928746918
41,"07-23-2015",260750281,AUD,USD,199882,-147331.822908,0.737094,260750291,-199882,147305.03872,0.73696,USD,-26.784188,26.784188
42,"07-23-2015",260750781,CHF,USD,-47970.65,50000,0.959413,260750791,47966.55,-50000,0.959331,CHF,-4.1,4.27394975495
43,"07-23-2015",260750901,EUR,JPY,-10000,1357000,135.700033,260750911,10000,-1357028,135.7028,JPY,-28,0.2258884264
44,"07-23-2015",260751101,EUR,USD,-413000,451767.071,1.093867,260751111,413000,-451783.178,1.093906,USD,-16.107,16.107
45,"07-23-2015",260751281,GBP,USD,405000,-632381.58,1.561436,260751291,-405000,632368.215,1.561403,USD,-13.365,13.365
46,"07-23-2015",260751361,JPY,NZD,1641647,-20000,82.082369,260751371,-1641210,20000,82.0605,JPY,437,-3.5254729406
47,"07-23-2015",260751481,JPY,USD,-6201697,50000,124.033948,260751491,6201595,-50000,124.0319,JPY,-102,0.8228792676
48,"07-23-2015",260751601,NZD,USD,1,-0.661773,0.661773,260751611,-1,0.661609,0.661609,USD,-0.000164,0.000164
49,"07-23-2015",260755231,CAD,USD,-782223.6,600000,1.303706,260755241,782229,-600000,1.303715,CAD,5.4,-4.14619164612
50,"07-23-2015",260749981,AUD,CAD,-400000,384442.4,0.961106,260749991,400000,-384378.8,0.960947,CAD,63.6,-48.83292383208
51,"07-23-2015",260750141,AUD,GBP,-5295582.5,2500000,2.118233,260750151,5296442.5,-2500000,2.118577,AUD,860,-632.014
52,"07-23-2015",260750181,AUD,JPY,-2000000,182863978,91.431989,260750191,2000000,-182827600,91.4138,JPY,36378,-293.4774705564
53,"07-23-2015",260750301,AUD,USD,-3132000,2308578.408,0.737094,260750311,3132000,-2308158.72,0.73696,USD,419.688,-419.688
54,"07-23-2015",260750801,CHF,USD,47970.65,-50000,0.959413,260750811,-47966.55,50000,0.959331,CHF,4.1,-4.27394975495
55,"07-23-2015",260750841,EUR,GBP,-650000,455429.65,0.700661,260750851,650000,-455454.35,0.700699,GBP,-24.7,38.3344
56,"07-23-2015",260751141,EUR,USD,-2450000,2679974.15,1.093867,260751151,2450000,-2680069.7,1.093906,USD,-95.55,95.55
57,"07-23-2015",260751261,GBP,USD,2000000,-3122872,1.561436,260751271,-2000000,3122806,1.561403,USD,-66,66
58,"07-23-2015",260751441,JPY,USD,-217059409,1750000,124.033948,260751451,217055825,-1750000,124.0319,JPY,-3584,28.9137185792
