#,Trade Date,Near Ticket,Ccy 1,Ccy 2,Qty 1,Qty 2,Near Price,Far Ticket,Far Qty 1,Far Qty 2,Far Price,Risk Ccy,Risk Ccy Amt,USD Cost Amt
1,"06-30-2015",248891501,AUD,CHF,220000,-156336.84,0.710622,248891511,-220000,156323.42,0.710561,CHF,-13.42,14.351628400164
2,"06-30-2015",248891541,AUD,EUR,-33590.81,23000,1.46047,248891551,33593.34,-23000,1.46058,AUD,2.53,-1.949385776613
3,"06-30-2015",248891581,AUD,GBP,1600500.72,-780000,2.051924,248891591,-1600583.4,780000,2.05203,AUD,-82.68,63.705618976428
4,"06-30-2015",248891621,AUD,JPY,355000,-33315481,93.846428,248891631,-355000,33313200,93.84,JPY,-2281,18.6063514868
5,"06-30-2015",248891681,AUD,NZD,-1002000,1128879.252,1.126626,248891691,1002000,-1128903.3,1.12665,NZD,-24.048,16.3146048319008
6,"06-30-2015",248891741,AUD,USD,-833000,638494.5,0.7665,248891751,833000,-638454.516,0.766452,USD,39.984,-39.984
7,"06-30-2015",248891801,CHF,EUR,1043031.21,-1005000,1.037842,248891811,-1043011.11,1005000,1.037822,CHF,20.1,-21.49535997342
8,"06-30-2015",248891841,CHF,GBP,-30621.003,21000,1.458143,248891851,30619.995,-21000,1.458095,CHF,-1.008,1.0779762613536
9,"06-30-2015",248891881,CHF,JPY,1000,-132062,132.062345,248891891,-1000,132065,132.065,JPY,3,-0.0244713084
10,"06-30-2015",248891921,CHF,NZD,-1261.504,2000,0.630752,248891931,1261.364,-2000,0.630682,CHF,-0.14,0.149718925188
11,"06-30-2015",248891981,CHF,USD,-1007757.7,1087000,0.9271,248891991,1007730.525,-1087000,0.927075,CHF,-27.175,29.061512799885
12,"06-30-2015",248892061,EUR,GBP,70000,-49822.92,0.711756,248892071,-70000,49823.97,0.711771,GBP,1.05,-1.647986112255
13,"06-30-2015",248892101,EUR,JPY,111000,-15213644,137.059861,248892111,-111000,15213682,137.0602,JPY,38,-0.3099699064
14,"06-30-2015",248892141,EUR,NZD,-3000,4936.209,1.645403,248892151,3000,-4936.68,1.64556,NZD,-0.471,0.3195350497266
15,"06-30-2015",248892181,EUR,SGD,1000,-1508.179,1.508179,248892191,-1000,1508.38,1.50838,SGD,0.201,-0.1492332439701
16,"06-30-2015",248892221,EUR,USD,-7909000,8853730.05,1.11945,248892231,7909000,-8853840.776,1.119464,USD,-110.726,110.726
17,"06-30-2015",248892301,GBP,JPY,320000,-61621045,192.565768,248892311,-320000,61620032,192.5626,JPY,-1013,8.2631451364
18,"06-30-2015",248892341,GBP,NZD,-53000,122522.803,2.311751,248892351,53000,-122532.184,2.311928,NZD,-9.381,6.3642426783126
19,"06-30-2015",248892381,GBP,USD,-1040000,1635712,1.5728,248892391,1040000,-1635699.52,1.572788,USD,12.48,-12.48
20,"06-30-2015",248892441,JPY,NZD,17242820,-207000,83.298652,248892451,-17241092,207000,83.2903,JPY,1728,-14.0954736384
21,"06-30-2015",248892481,JPY,SGD,-363510,4000,90.877714,248892491,363519,-4000,90.8798,JPY,9,-0.0734139252
22,"06-30-2015",248892541,JPY,USD,-58034190,474000,122.435,248892551,58033621,-474000,122.4338,JPY,-569,4.6413914932
23,"06-30-2015",248892581,MXN,USD,15702,-1000,15.702,248892591,-15702.839,1000,15.702839,MXN,-0.839,0.0533151789907
24,"06-30-2015",248892621,NZD,USD,765000,-520467.75,0.68035,248892631,-765000,520424.91,0.680294,USD,-42.84,42.84
25,"06-30-2015",248892681,SGD,USD,17514.25,-13000,1.34725,248892691,-17513.652,13000,1.347204,SGD,0.598,-0.4439874621598
26,"06-30-2015",248901181,TRY,USD,-16246.956,6000,2.707826,248901191,16251.342,-6000,2.708557,TRY,4.386,-1.6359262228314
27,"06-30-2015",248901241,CAD,USD,1630865.483,-1313000,1.242091,248901251,-1630908.812,1313000,1.242124,CAD,-43.329,34.7006767296189
28,"06-30-2015",248891661,AUD,NZD,-60000,67597.56,1.126626,248891671,60000,-67599,1.12665,NZD,-1.44,0.976922445024
29,"06-30-2015",248891761,AUD,USD,-2118,1623.447,0.7665,248891771,2118,-1623.345336,0.766452,USD,0.101664,-0.101664
30,"06-30-2015",248891961,CHF,USD,-46355,50000,0.9271,248891971,46353.75,-50000,0.927075,CHF,-1.25,1.33677611775
31,"06-30-2015",248892041,EUR,GBP,5000,-3558.78,0.711756,248892051,-5000,3558.855,0.711771,GBP,0.075,-0.1177132937325
32,"06-30-2015",248892241,EUR,USD,-350000,391807.5,1.11945,248892251,350000,-391812.4,1.119464,USD,-4.9,4.9
33,"06-30-2015",248892401,GBP,USD,-20000,31456,1.5728,248892411,20000,-31455.76,1.572788,USD,0.24,-0.24
34,"06-30-2015",248892521,JPY,USD,-3795485,31000,122.435,248892531,3795447,-31000,122.4338,JPY,-38,0.3099699064
35,"06-30-2015",248892641,NZD,USD,1,-0.68035,0.68035,248892651,-1,0.680294,0.680294,USD,-5.6E-5,5.6E-5
36,"06-30-2015",248901261,CAD,USD,2727.45794326,-2195.86,1.242091,248901271,-2727.53040664,2195.86,1.242124,CAD,-0.07246338,0.0580333800483633
37,"06-30-2015",248891721,AUD,USD,-2513000,1926214.5,0.7665,248891731,2513000,-1926093.876,0.766452,USD,120.624,-120.624
38,"06-30-2015",248892001,CHF,USD,46355,-50000,0.9271,248892011,-46353.75,50000,0.927075,CHF,1.25,-1.33677611775
39,"06-30-2015",248892261,EUR,USD,-11720000,13119954,1.11945,248892271,11720000,-13120118.08,1.119464,USD,-164.08,164.08
40,"06-30-2015",248901221,CAD,USD,-7094823.792,5712000,1.242091,248901231,7095012.288,-5712000,1.242124,CAD,188.496,-150.959836618114
41,"06-30-2015",249034211,AUD,CAD,-1622668.98,1546241.271042,0.9529,249034221,1622668.98,-1546153.64691708,0.952846,CAD,87.62412492,-70.175089029626
42,"06-30-2015",249034311,AUD,USD,2001903.37,-1537800.5102102,0.7681692,249034321,-2001903.37,1537702.0165644,0.76812,USD,-98.4936458,98.4936458
