#,Trade Date,Near Ticket,Ccy 1,Ccy 2,Qty 1,Qty 2,Near Price,Far Ticket,Far Qty 1,Far Qty 2,Far Price,Risk Ccy,Risk Ccy Amt,USD Cost Amt
1,"03-17-2015",191426341,CAD,USD,1030728.114,-806000,1.278819,191426351,-1030741.01,806000,1.278835,CAD,-12.896,10.0809067819616
2,"03-17-2015",191448651,CAD,GBP,-367769.098,194000,1.895717,191448661,367772.59,-194000,1.895735,CAD,3.492,-2.7297244480932
3,"03-17-2015",191448691,CHF,GBP,-530668.555,355000,1.494841,191448701,530650.45,-355000,1.49479,CHF,-18.105,17.9978165007855
4,"03-17-2015",191448731,EUR,GBP,-218000,155325.218,0.712501,191448741,218000,-155327.616,0.712512,GBP,-2.398,3.5363791803626
5,"03-17-2015",191448771,AUD,CHF,26000,-20014.02,0.76977,191448781,-26000,20012.278,0.769703,CHF,-1.742,1.7316871772642
6,"03-17-2015",191448811,AUD,EUR,-760995.95,550000,1.383629,191448821,761053.15,-550000,1.383733,AUD,57.2,-43.6032921038
7,"03-17-2015",191448851,AUD,GBP,-4858716.366,2502000,1.941933,191448861,4859001.594,-2502000,1.942047,AUD,285.228,-217.427968534662
8,"03-17-2015",191448891,CAD,CHF,44000,-34695.584,0.788536,191448901,-44000,34694.132,0.788503,CHF,-1.452,1.4434040076852
9,"03-17-2015",191448951,AUD,CAD,-113000,110310.713,0.976201,191448961,113000,-110304.95,0.97615,CAD,5.763,-4.5049833889923
10,"03-17-2015",191449051,AUD,JPY,65000,-6023879,92.675075,191449061,-65000,6023465,92.6687,JPY,-414,3.4115488668
11,"03-17-2015",191449091,AUD,NOK,124.87,-789.45611088,6.322224,191449101,-124.87,789.43912856,6.322088,NOK,-0.01698232,0.00204251543266539
12,"03-17-2015",191449151,AUD,NZD,549000,-567950.382,1.034518,191449161,-549000,567980.577,1.034573,NZD,30.195,-22.076815448655
13,"03-17-2015",191449191,CAD,EUR,5402.8,-4000,1.3507,191449201,-5402.928,4000,1.350732,CAD,-0.128,0.1000586281088
14,"03-17-2015",191449251,CAD,JPY,-13000,1234147,94.934413,191449261,13000,-1234114,94.9319,JPY,33,-0.2719350546
15,"03-17-2015",191449291,CHF,EUR,256683.316,-241000,1.065076,191449301,-256677.291,241000,1.065051,CHF,6.025,-5.9893313679775
16,"03-17-2015",191449331,CHF,JPY,-12000,1444718,120.39324,191449341,12000,-1444742,120.3952,JPY,-24,0.1977709488
17,"03-17-2015",191449371,EUR,JPY,-933000,119636647,128.227918,191449381,933000,-119636537,128.2278,JPY,110,-0.906450182
18,"03-17-2015",191449431,EUR,NOK,1000,-8747.612,8.747612,191449441,-1000,8748.036,8.748036,NOK,0.424,-0.0509957734544
19,"03-17-2015",191449471,GBP,JPY,-133000,23935850,179.968801,191449481,133000,-23935424,179.9656,JPY,426,-3.5104343412
20,"03-17-2015",191449511,EUR,SEK,-1000,9152.553,9.152553,191449521,1000,-9152.552,9.152552,SEK,0.001,-0.0001150675851
21,"03-17-2015",191449551,GBP,NZD,953000,-1914544.598,2.008966,191449561,-953000,1914747.587,2.009179,NZD,202.989,-148.413667531281
22,"03-17-2015",191449591,JPY,NZD,-2329153,26000,89.582816,191449601,2328944,-26000,89.5748,JPY,-209,1.7222553458
23,"03-17-2015",191449631,AUD,SEK,224.27,-1483.5213803,6.61489,191449641,-224.27,1483.42359858,6.614454,SEK,-0.09778172,0.0112515063873244
24,"03-17-2015",191449671,AUD,SGD,-114.69,121.6344795,1.06055,191449681,114.69,-121.62725403,1.060487,SGD,0.00722547,-0.00520294687344728
25,"03-17-2015",191449711,CAD,NZD,-38688.748,41000,0.943628,191449721,38686.247,-41000,0.943567,CAD,-2.501,1.9550517882821
26,"03-17-2015",191449751,CHF,NZD,-101205.624,136000,0.744159,191449761,101194.608,-136000,0.744078,CHF,-11.016,10.9507841244216
27,"03-17-2015",191449791,EUR,NZD,-144000,206120.16,1.43139,191449801,144000,-206138.592,1.431518,NZD,-18.432,13.476398819328
28,"03-17-2015",191452231,AUD,USD,-557000,424935.3,0.7629,191452241,557000,-424907.45,0.76285,USD,27.85,-27.85
29,"03-17-2015",191452311,CHF,USD,99829.62,-99000,1.00838,191452321,-99826.551,99000,1.008349,CHF,3.069,-3.0508311980619
30,"03-17-2015",191452371,EUR,USD,-3073000,3244593.247,1.055839,191452381,3073000,-3244623.977,1.055849,USD,-30.73,30.73
31,"03-17-2015",191452431,GBP,USD,-511000,757384.271,1.482161,191452441,511000,-757378.139,1.482149,USD,6.132,-6.132
32,"03-17-2015",191452531,JPY,USD,-33265232,274000,121.405958,191452541,33264860,-274000,121.4046,JPY,-372,3.0654497064
33,"03-17-2015",191452571,NOK,USD,-273226.602,33000,8.279594,191452581,273236.931,-33000,8.279907,NOK,10.329,-1.2423003396474
34,"03-17-2015",191452631,NZD,USD,-1715000,1265020.015,0.737621,191452641,1715000,-1264882.815,0.737541,USD,137.2,-137.2
35,"03-17-2015",191452671,SEK,USD,-407403.755,47000,8.668165,191452681,407401.17,-47000,8.66811,SEK,-2.585,0.2974497074835
36,"03-17-2015",191452711,SGD,USD,-47255.988,34000,1.389882,191452721,47266.528,-34000,1.390192,SGD,10.54,-7.589687597642
37,"03-17-2015",191452751,USD,ZAR,20,-248.14854,12.407427,191452761,-20,248.19016,12.409508,ZAR,0.04162,-0.003367832356748
38,"03-17-2015",191449211,CAD,EUR,-3835.542269,2839.67,1.3507,191449221,3835.63313844,-2839.67,1.350732,CAD,0.09086944,-0.071033371120429
39,"03-17-2015",191449031,AUD,JPY,-18000,1668151,92.675075,191449041,18000,-1668036,92.6687,JPY,115,-0.947652463
40,"03-17-2015",191449131,AUD,NZD,-2000,2069.036,1.034518,191449141,2000,-2069.146,1.034573,NZD,-0.11,0.08042555719
41,"03-17-2015",191449391,EUR,JPY,-30000,3846837,128.227918,191449401,30000,-3846834,128.2278,JPY,3,-0.0247213686
42,"03-17-2015",191452251,AUD,USD,97000,-74001.3,0.7629,191452261,-97000,73996.45,0.76285,USD,-4.85,4.85
43,"03-17-2015",191452331,CHF,USD,-3025.14,3000,1.00838,191452341,3025.047,-3000,1.008349,CHF,-0.093,0.0924494302443
44,"03-17-2015",191452391,EUR,USD,-593000,626112.527,1.055839,191452401,593000,-626118.457,1.055849,USD,-5.93,5.93
45,"03-17-2015",191452451,GBP,USD,-13000,19268.093,1.482161,191452461,13000,-19267.937,1.482149,USD,0.156,-0.156
46,"03-17-2015",191452511,JPY,USD,7162951,-59000,121.405958,191452521,-7162871,59000,121.4046,JPY,80,-0.659236496
47,"03-17-2015",191452611,NZD,USD,-186200,137345.0302,0.737621,191452621,186200,-137330.1342,0.737541,USD,14.896,-14.896
48,"03-17-2015",191452271,AUD,USD,-1700000,1296930,0.7629,191452281,1700000,-1296845,0.76285,USD,85,-85
49,"03-17-2015",191452491,JPY,USD,645879696,-5320000,121.405958,191452501,-645872472,5320000,121.4046,JPY,7224,-59.5290555888
