#,Trade Date,Near Ticket,Ccy 1,Ccy 2,Qty 1,Qty 2,Near Price,Far Ticket,Far Qty 1,Far Qty 2,Far Price,Risk Ccy,Risk Ccy Amt,USD Cost Amt
1,"07-02-2015",250554521,AUD,CAD,-338209.01,325138.58459954,0.961354,250554531,338209.01,-325093.60280121,0.961221,CAD,44.98179833,-35.8506402560324
2,"07-02-2015",250554561,AUD,CHF,66000,-47732.52,0.72322,250554571,-66000,47720.046,0.723031,CHF,-12.474,13.2209856912672
3,"07-02-2015",250554621,AUD,EUR,-33287.371,23000,1.447277,250554631,33294.455,-23000,1.447585,AUD,7.084,-5.4082798
4,"07-02-2015",250554661,AUD,GBP,-147070.008,72000,2.042639,250554671,147093.12,-72000,2.04296,AUD,23.112,-17.6448564
5,"07-02-2015",250554721,AUD,JPY,361000,-34034634,94.278766,250554731,-361000,34027282,94.2584,JPY,-7352,59.7383605992
6,"07-02-2015",250554761,AUD,NZD,-1037000,1181524.616,1.139368,250554771,1037000,-1181625.205,1.139465,NZD,-100.589,67.6461025
7,"07-02-2015",250554821,AUD,USD,-1213000,926352.331,0.763687,250554831,1213000,-926187.363,0.763551,USD,164.968,-164.968
8,"07-02-2015",250554881,CAD,CHF,-31000,23321.083,0.752293,250554891,31000,-23317.89,0.75219,CHF,3.193,-3.3842077370704
9,"07-02-2015",250554921,CAD,EUR,13913.46,-10000,1.391346,250554931,-13914.47,10000,1.391447,CAD,-1.01,0.804973300377
10,"07-02-2015",250554961,CAD,GBP,394703.499,-201000,1.963699,250554971,-394710.333,201000,1.963733,CAD,-6.834,5.4467203314618
11,"07-02-2015",250555001,CAD,JPY,466000,-45700027,98.068729,250555011,-466000,45696332,98.0608,JPY,-3695,30.0235639845
12,"07-02-2015",250555041,CAD,NZD,60750.792,-72000,0.843761,250555051,-60736.824,72000,0.843567,CAD,13.968,-11.1325416432336
13,"07-02-2015",250555081,CHF,EUR,2190743.1,-2093000,1.0467,250555091,-2190611.241,2093000,1.046637,CHF,131.859,-139.755166928395
14,"07-02-2015",250555121,CHF,GBP,144773.244,-98000,1.477278,250555131,-144756.584,98000,1.477108,CHF,16.66,-17.657657657248
15,"07-02-2015",250555161,CHF,JPY,-19000,2476834,130.359685,250555171,19000,-2476936,130.3651,JPY,-102,0.8287966242
16,"07-02-2015",250555201,CHF,NZD,38720.055,-61000,0.634755,250555211,-38706.025,61000,0.634525,CHF,14.03,-14.870164281584
17,"07-02-2015",250555261,CHF,USD,-76707.891,81000,0.947011,250555271,76701.006,-81000,0.946926,CHF,-6.885,7.297297297128
18,"07-02-2015",250555321,EUR,GBP,506000,-358517.698,0.708533,250555331,-506000,358537.938,0.708573,GBP,20.24,-31.587556
19,"07-02-2015",250555381,EUR,JPY,385000,-52532291,136.447511,250555391,-385000,52531941,136.4466,JPY,-350,2.843909985
20,"07-02-2015",250555421,EUR,NZD,215000,-354531.13,1.648982,250555431,-215000,354638.63,1.649482,NZD,107.5,-72.29375
21,"07-02-2015",250555461,EUR,SEK,-4000,37082.736,9.270684,250555471,4000,-37082.016,9.270504,SEK,0.72,-0.08514412416
22,"07-02-2015",250555501,EUR,SGD,19.19,-28.68436764,1.494756,250555511,-19.19,28.6894338,1.49502,SGD,0.00506616,-0.00375800014850806
23,"07-02-2015",250555541,EUR,USD,-7959000,8796820.053,1.105267,250555551,7959000,-8797122.495,1.105305,USD,-302.442,302.442
24,"07-02-2015",250555621,GBP,JPY,662000,-127486308,192.577506,250555631,-662000,127478361,192.5655,JPY,-7947,64.5730075737
25,"07-02-2015",250555661,GBP,NZD,124000,-288587.432,2.327318,250555671,-124000,288659.104,2.327896,NZD,71.672,-48.19942
26,"07-02-2015",250555721,GBP,USD,-1329000,2073156.273,1.559937,250555731,1329000,-2073109.758,1.559902,USD,46.515,-46.515
27,"07-02-2015",250555761,JPY,NZD,31774664,-384000,82.746521,250555771,-31764672,384000,82.7205,JPY,9992,-81.1895673432
28,"07-02-2015",250555801,JPY,SGD,-456366,5000,91.273389,250555811,456354,-5000,91.2709,JPY,-12,0.0975054852
29,"07-02-2015",250555861,JPY,USD,-66041525,535000,123.442104,250555871,66038741,-535000,123.4369,JPY,-2784,22.6212725664
30,"07-02-2015",250555901,MXN,USD,15788.221,-1000,15.788221,250555911,-15791.25,1000,15.79125,MXN,-3.029,0.193398033374
31,"07-02-2015",250555941,NOK,USD,47623.152,-6000,7.937192,250555951,-47626.17,6000,7.937695,NOK,-3.018,0.3789648158298
32,"07-02-2015",250555981,NZD,USD,337000,-225814.264,0.670072,250555991,-337000,225754.952,0.669896,USD,-59.312,59.312
33,"07-02-2015",250556041,SEK,USD,-1870063.282,223000,8.385934,250556051,1869976.758,-223000,8.385546,SEK,-86.524,10.231958609472
34,"07-02-2015",250556081,SGD,USD,-8114.664,6000,1.352444,250556091,8115.75,-6000,1.352625,SGD,1.086,-0.8055782212326
35,"07-02-2015",250560521,CAD,USD,2783837.392,-2212000,1.258516,250560531,-2783879.42,2212000,1.258535,CAD,-42.028,33.4964533348956
36,"07-02-2015",250560561,TRY,USD,-18855.41,7000,2.69363,250560571,18861.108,-7000,2.694444,TRY,5.698,-2.1221601490628
37,"07-02-2015",250554481,AUD,CAD,-6000,5768.124,0.961354,250554491,6000,-5767.326,0.961221,CAD,0.798,-0.6360086076246
38,"07-02-2015",250554601,AUD,EUR,-286560.846,198000,1.447277,250554611,286621.83,-198000,1.447585,AUD,60.984,-46.5582348
39,"07-02-2015",250554681,AUD,GBP,-14298.473,7000,2.042639,250554691,14300.72,-7000,2.04296,AUD,2.247,-1.71547215
40,"07-02-2015",250554801,AUD,USD,-3118,2381.176066,0.763687,250554811,3118,-2380.752018,0.763551,USD,0.424048,-0.424048
41,"07-02-2015",250555281,CHF,USD,-47350.55,50000,0.947011,250555291,47346.3,-50000,0.946926,CHF,-4.25,4.5045045044
42,"07-02-2015",250555341,EUR,GBP,-1000,708.533,0.708533,250555351,1000,-708.573,0.708573,GBP,-0.04,0.062426
43,"07-02-2015",250555561,EUR,USD,108000,-119368.836,1.105267,250555571,-108000,119372.94,1.105305,USD,4.104,-4.104
44,"07-02-2015",250555701,GBP,USD,5000,-7799.685,1.559937,250555711,-5000,7799.51,1.559902,USD,-0.175,0.175
45,"07-02-2015",250555841,JPY,USD,-987536,8000,123.442104,250555851,987495,-8000,123.4369,JPY,-41,0.3331437411
46,"07-02-2015",250556001,NZD,USD,-2999,2009.545928,0.670072,250556011,2999,-2009.018104,0.669896,USD,0.527824,-0.527824
47,"07-02-2015",250560501,CAD,USD,2763.52494376,-2195.86,1.258516,250560511,-2763.5666651,2195.86,1.258535,CAD,-0.04172134,0.0332520443128227
48,"07-02-2015",250554501,AUD,CAD,-1622668.98,1559959.31459892,0.961354,250554511,1622668.98,-1559743.49962458,0.961221,CAD,215.81497434,-172.005239767572
49,"07-02-2015",250554841,AUD,USD,-1192096.63,910388.69907481,0.763687,250554851,1192096.63,-910226.57393313,0.763551,USD,162.12514168,-162.12514168
50,"07-02-2015",250555241,CHF,USD,47350.55,-50000,0.947011,250555251,-47346.3,50000,0.946926,CHF,4.25,-4.5045045044
51,"07-02-2015",250555581,EUR,USD,-11720000,12953729.24,1.105267,250555591,11720000,-12954174.6,1.105305,USD,-445.36,445.36
52,"07-02-2015",250560481,CAD,USD,-5995570.224,4764000,1.258516,250560491,5995660.74,-4764000,1.258535,CAD,90.516,-72.1415477791332
